EESchema Schematic File Version 4
EELAYER 30 0
EELAYER END
$Descr A4 11693 8268
encoding utf-8
Sheet 3 4
Title "Shared Ground Array Controller"
Date "2021-01-12"
Rev "A"
Comp "Ensemble Solutions, LLC"
Comment1 ""
Comment2 ""
Comment3 ""
Comment4 ""
$EndDescr
Text GLabel 2500 1900 0    50   Input ~ 0
REMOTE_RX_FRONT
Text GLabel 2500 2000 0    50   Input ~ 0
REMOTE_TX_FRONT
Text GLabel 3000 1800 2    50   Input ~ 0
DC_PWR_IN_FRONT
Text GLabel 3000 1900 2    50   Input ~ 0
PWR_DATA_OUT_FRONT
$Comp
L power:GND #PWR?
U 1 1 5FFEC502
P 3100 2050
AR Path="/5FFE1B74/5FFEC502" Ref="#PWR?"  Part="1" 
AR Path="/5FFE2078/5FFEC502" Ref="#PWR?"  Part="1" 
F 0 "#PWR?" H 3100 1800 50  0001 C CNN
F 1 "GND" H 3105 1877 50  0000 C CNN
F 2 "" H 3100 2050 50  0001 C CNN
F 3 "" H 3100 2050 50  0001 C CNN
	1    3100 2050
	1    0    0    -1  
$EndComp
$Comp
L Connector_Generic:Conn_02x03_Odd_Even J?
U 1 1 5FFEC508
P 2700 1900
F 0 "J?" H 2750 2217 50  0000 C CNN
F 1 "Conn_02x03_Odd_Even" H 2750 2126 50  0000 C CNN
F 2 "" H 2700 1900 50  0001 C CNN
F 3 "~" H 2700 1900 50  0001 C CNN
	1    2700 1900
	1    0    0    -1  
$EndComp
Text GLabel 2500 1800 0    50   Input ~ 0
REMOTE_COMM_FRONT
Wire Wire Line
	3000 2000 3100 2000
Wire Wire Line
	3100 2000 3100 2050
Text Notes 2350 2400 0    50   ~ 0
CABLE FROM BACK PANEL
$Comp
L Regulator_Linear:MCP1804x-5002xMB U?
U 1 1 5FFECB5B
P 3750 4650
F 0 "U?" H 3750 4892 50  0000 C CNN
F 1 "MCP1804x-5002xMB" H 3750 4801 50  0000 C CNN
F 2 "Package_TO_SOT_SMD:SOT-89-3" H 3750 4850 50  0001 C CIN
F 3 "http://ww1.microchip.com/downloads/en/DeviceDoc/20002200D.pdf" H 3750 4600 50  0001 C CNN
	1    3750 4650
	1    0    0    -1  
$EndComp
$Comp
L power:GND #PWR?
U 1 1 5FFEF293
P 3750 4950
AR Path="/5FFE1B74/5FFEF293" Ref="#PWR?"  Part="1" 
AR Path="/5FFE2078/5FFEF293" Ref="#PWR?"  Part="1" 
F 0 "#PWR?" H 3750 4700 50  0001 C CNN
F 1 "GND" H 3755 4777 50  0000 C CNN
F 2 "" H 3750 4950 50  0001 C CNN
F 3 "" H 3750 4950 50  0001 C CNN
	1    3750 4950
	1    0    0    -1  
$EndComp
$Comp
L _projectSymbols:CAPACITOR_CHIP_NON-POLARIZED_EIA_0603-METRIC_1608X95 C?
U 1 1 5FFEF987
P 2950 4650
F 0 "C?" H 3078 4591 50  0000 L CNN
F 1 "1uF" H 3078 4500 50  0000 L CNN
F 2 "Capacitor_SMD:C_0603_1608Metric" H 3150 4200 50  0001 C CNN
F 3 "" H 2990 4575 50  0001 C CNN
F 4 "V?" H 3078 4409 50  0000 L CNN "Voltage"
	1    2950 4650
	1    0    0    -1  
$EndComp
Text GLabel 1850 4650 0    50   Input ~ 0
DC_PWR_IN_FRONT
Wire Wire Line
	1850 4650 2100 4650
Wire Wire Line
	2950 4650 3450 4650
Connection ~ 2950 4650
$Comp
L power:GND #PWR?
U 1 1 5FFF0D44
P 2950 4950
AR Path="/5FFE1B74/5FFF0D44" Ref="#PWR?"  Part="1" 
AR Path="/5FFE2078/5FFF0D44" Ref="#PWR?"  Part="1" 
F 0 "#PWR?" H 2950 4700 50  0001 C CNN
F 1 "GND" H 2955 4777 50  0000 C CNN
F 2 "" H 2950 4950 50  0001 C CNN
F 3 "" H 2950 4950 50  0001 C CNN
	1    2950 4950
	1    0    0    -1  
$EndComp
Wire Wire Line
	4050 4650 4200 4650
$Comp
L power:+5V #PWR?
U 1 1 5FFF121F
P 4450 4500
F 0 "#PWR?" H 4450 4350 50  0001 C CNN
F 1 "+5V" H 4465 4673 50  0000 C CNN
F 2 "" H 4450 4500 50  0001 C CNN
F 3 "" H 4450 4500 50  0001 C CNN
	1    4450 4500
	1    0    0    -1  
$EndComp
Wire Wire Line
	4450 4500 4450 4650
Text Notes 4350 4250 0    50   ~ 0
SOURCE
$Comp
L Device:D_Zener D?
U 1 1 5FFF1F01
P 2100 4950
F 0 "D?" V 2054 5030 50  0000 L CNN
F 1 "D_Zener" V 2145 5030 50  0000 L CNN
F 2 "" H 2100 4950 50  0001 C CNN
F 3 "~" H 2100 4950 50  0001 C CNN
	1    2100 4950
	0    1    1    0   
$EndComp
$Comp
L power:GND #PWR?
U 1 1 5FFF2BC2
P 2100 5200
AR Path="/5FFE1B74/5FFF2BC2" Ref="#PWR?"  Part="1" 
AR Path="/5FFE2078/5FFF2BC2" Ref="#PWR?"  Part="1" 
F 0 "#PWR?" H 2100 4950 50  0001 C CNN
F 1 "GND" H 2105 5027 50  0000 C CNN
F 2 "" H 2100 5200 50  0001 C CNN
F 3 "" H 2100 5200 50  0001 C CNN
	1    2100 5200
	1    0    0    -1  
$EndComp
Wire Wire Line
	2100 5200 2100 5100
Wire Wire Line
	2100 4800 2100 4650
Connection ~ 2100 4650
Wire Wire Line
	2100 4650 2950 4650
Text Notes 2200 5100 0    50   ~ 0
16V?
Text GLabel 5050 3050 2    50   Input ~ 0
PWR_DATA_OUT_FRONT
Wire Wire Line
	4300 3050 5050 3050
$Comp
L Transistor_FET:BS170F Q?
U 1 1 600020FE
P 4000 3750
F 0 "Q?" H 4205 3796 50  0000 L CNN
F 1 "BS170F" H 4205 3705 50  0000 L CNN
F 2 "Package_TO_SOT_SMD:SOT-23" H 4200 3675 50  0001 L CIN
F 3 "http://www.diodes.com/assets/Datasheets/BS170F.pdf" H 4000 3750 50  0001 L CNN
	1    4000 3750
	1    0    0    -1  
$EndComp
$Comp
L _projectSymbols:RESISTOR_CHIP_EIA_0603-METRIC_1608 R?
U 1 1 60006713
P 3850 3450
F 0 "R?" H 3850 3655 50  0000 C CNN
F 1 "100k" H 3850 3564 50  0000 C CNN
F 2 "Resistor_SMD:R_0603_1608Metric" H 4300 3350 50  0001 C CNN
F 3 "" H 3850 3450 50  0001 C CNN
	1    3850 3450
	1    0    0    -1  
$EndComp
Wire Wire Line
	4100 3350 4100 3450
Wire Wire Line
	4050 3450 4100 3450
Connection ~ 4100 3450
Wire Wire Line
	4100 3450 4100 3550
$Comp
L power:GND #PWR?
U 1 1 600116D4
P 4100 3950
AR Path="/5FFE1B74/600116D4" Ref="#PWR?"  Part="1" 
AR Path="/5FFE2078/600116D4" Ref="#PWR?"  Part="1" 
F 0 "#PWR?" H 4100 3700 50  0001 C CNN
F 1 "GND" H 4105 3777 50  0000 C CNN
F 2 "" H 4100 3950 50  0001 C CNN
F 3 "" H 4100 3950 50  0001 C CNN
	1    4100 3950
	1    0    0    -1  
$EndComp
Wire Wire Line
	3650 3450 3500 3450
Wire Wire Line
	3500 3450 3500 3050
Wire Wire Line
	3500 3050 3900 3050
Connection ~ 3500 3050
$Comp
L _projectSymbols:RESISTOR_CHIP_EIA_0603-METRIC_1608 R?
U 1 1 6001ABC7
P 3600 3750
F 0 "R?" H 3600 3955 50  0000 C CNN
F 1 "1k" H 3600 3864 50  0000 C CNN
F 2 "Resistor_SMD:R_0603_1608Metric" H 4050 3650 50  0001 C CNN
F 3 "" H 3600 3750 50  0001 C CNN
	1    3600 3750
	1    0    0    -1  
$EndComp
$Comp
L Transistor_FET:IRLML9301 Q?
U 1 1 6001B8D3
P 4100 3150
F 0 "Q?" V 4442 3150 50  0000 C CNN
F 1 "IRLML9301" V 4351 3150 50  0000 C CNN
F 2 "Package_TO_SOT_SMD:SOT-23" H 4300 3075 50  0001 L CIN
F 3 "https://www.infineon.com/dgdl/irlml9301pbf.pdf?fileId=5546d462533600a401535668e5e42640" H 4100 3150 50  0001 L CNN
	1    4100 3150
	0    1    -1   0   
$EndComp
Wire Wire Line
	2100 3050 2100 4650
Wire Wire Line
	2100 3050 3500 3050
Text GLabel 3400 3750 0    50   Input ~ 0
MCU_ARRAY_TX
$Comp
L _projectSymbols:CAPACITOR_CHIP_NON-POLARIZED_EIA_0603-METRIC_1608X95 C?
U 1 1 60032B54
P 4200 4650
F 0 "C?" H 4328 4591 50  0000 L CNN
F 1 "1uF" H 4328 4500 50  0000 L CNN
F 2 "Capacitor_SMD:C_0603_1608Metric" H 4400 4200 50  0001 C CNN
F 3 "" H 4240 4575 50  0001 C CNN
F 4 "V?" H 4328 4409 50  0000 L CNN "Voltage"
	1    4200 4650
	1    0    0    -1  
$EndComp
Connection ~ 4200 4650
Wire Wire Line
	4200 4650 4450 4650
$Comp
L power:GND #PWR?
U 1 1 600335CE
P 4200 4950
AR Path="/5FFE1B74/600335CE" Ref="#PWR?"  Part="1" 
AR Path="/5FFE2078/600335CE" Ref="#PWR?"  Part="1" 
F 0 "#PWR?" H 4200 4700 50  0001 C CNN
F 1 "GND" H 4205 4777 50  0000 C CNN
F 2 "" H 4200 4950 50  0001 C CNN
F 3 "" H 4200 4950 50  0001 C CNN
	1    4200 4950
	1    0    0    -1  
$EndComp
$EndSCHEMATC
