EESchema Schematic File Version 4
EELAYER 30 0
EELAYER END
$Descr A4 11693 8268
encoding utf-8
Sheet 4 4
Title "Shared Ground Array Controller"
Date "2021-01-12"
Rev "A"
Comp "Ensemble Solutions, LLC"
Comment1 ""
Comment2 ""
Comment3 ""
Comment4 ""
$EndDescr
Text GLabel 2400 1150 0    50   Input ~ 0
MCU_ARRAY_TX
Text GLabel 2400 1350 0    50   Input ~ 0
REMOTE_RX_FRONT
Text GLabel 2350 1600 0    50   Input ~ 0
REMOTE_TX_FRONT
$Comp
L _projectSymbols:ATSAMC20E18A-AUT U?
U 1 1 60034366
P 4050 2450
F 0 "U?" H 5050 2837 60  0000 C CNN
F 1 "ATSAMC20E18A-AUT" H 5050 2731 60  0000 C CNN
F 2 "TQFP32_MC_MCH" H 5050 2690 60  0001 C CNN
F 3 "" H 4050 2450 60  0000 C CNN
	1    4050 2450
	1    0    0    -1  
$EndComp
$Comp
L _projectSymbols:Crystal-device Y?
U 1 1 60035649
P 3250 4350
F 0 "Y?" H 3250 4708 50  0000 C CNN
F 1 "Crystal-device" H 3250 4617 50  0000 C CNN
F 2 "Crystal:Crystal_SMD_HC49-SD" H 3250 4526 50  0000 C CNN
F 3 "" H 3250 4350 50  0001 C CNN
	1    3250 4350
	1    0    0    -1  
$EndComp
$Comp
L _projectSymbols:CAPACITOR_CHIP_NON-POLARIZED_EIA_0603-METRIC_1608X95 C?
U 1 1 60036A1D
P 2950 4600
F 0 "C?" H 3078 4541 50  0000 L CNN
F 1 "6.8pF" H 3078 4450 50  0000 L CNN
F 2 "Capacitor_SMD:C_0603_1608Metric" H 3150 4150 50  0001 C CNN
F 3 "" H 2990 4525 50  0001 C CNN
F 4 "V?" H 3078 4359 50  0000 L CNN "Voltage"
	1    2950 4600
	1    0    0    -1  
$EndComp
$Comp
L _projectSymbols:CAPACITOR_CHIP_NON-POLARIZED_EIA_0603-METRIC_1608X95 C?
U 1 1 60037727
P 3450 4600
F 0 "C?" H 3578 4541 50  0000 L CNN
F 1 "6.8pF" H 3578 4450 50  0000 L CNN
F 2 "Capacitor_SMD:C_0603_1608Metric" H 3650 4150 50  0001 C CNN
F 3 "" H 3490 4525 50  0001 C CNN
F 4 "V?" H 3578 4359 50  0000 L CNN "Voltage"
	1    3450 4600
	1    0    0    -1  
$EndComp
$Comp
L Connector_Generic:Conn_02x03_Odd_Even J?
U 1 1 60037E2E
P 7300 1800
F 0 "J?" H 7350 2117 50  0000 C CNN
F 1 "Conn_02x03_Odd_Even" H 7350 2026 50  0000 C CNN
F 2 "" H 7300 1800 50  0001 C CNN
F 3 "~" H 7300 1800 50  0001 C CNN
	1    7300 1800
	1    0    0    -1  
$EndComp
$Comp
L _projectSymbols:RESISTOR_CHIP_EIA_0603-METRIC_1608 R?
U 1 1 6003909A
P 8050 1400
F 0 "R?" V 8004 1468 50  0000 L CNN
F 1 "1k" V 8095 1468 50  0000 L CNN
F 2 "Resistor_SMD:R_0603_1608Metric" H 8500 1300 50  0001 C CNN
F 3 "" H 8050 1400 50  0001 C CNN
	1    8050 1400
	0    1    1    0   
$EndComp
Text GLabel 6050 2450 2    50   Input ~ 0
SWDIO
Text GLabel 6050 2550 2    50   Input ~ 0
SWDCLK
Text GLabel 8350 1900 2    50   Input ~ 0
SWDIO
Text GLabel 8350 1700 2    50   Input ~ 0
SWDCLK
Wire Wire Line
	8350 1700 8050 1700
Wire Wire Line
	8350 1900 7600 1900
Wire Wire Line
	8050 1600 8050 1700
Connection ~ 8050 1700
Wire Wire Line
	8050 1700 7600 1700
$Comp
L power:+5V #PWR?
U 1 1 6003AD75
P 8050 1200
F 0 "#PWR?" H 8050 1050 50  0001 C CNN
F 1 "+5V" H 8065 1373 50  0000 C CNN
F 2 "" H 8050 1200 50  0001 C CNN
F 3 "" H 8050 1200 50  0001 C CNN
	1    8050 1200
	1    0    0    -1  
$EndComp
$Comp
L power:+5V #PWR?
U 1 1 6003B69A
P 6800 1250
F 0 "#PWR?" H 6800 1100 50  0001 C CNN
F 1 "+5V" H 6815 1423 50  0000 C CNN
F 2 "" H 6800 1250 50  0001 C CNN
F 3 "" H 6800 1250 50  0001 C CNN
	1    6800 1250
	1    0    0    -1  
$EndComp
Wire Wire Line
	7100 1800 6800 1800
Wire Wire Line
	6800 1800 6800 1250
Wire Wire Line
	7100 1700 6950 1700
Wire Wire Line
	6950 1700 6950 2150
$Comp
L power:GND #PWR?
U 1 1 6003C79B
P 6950 2150
F 0 "#PWR?" H 6950 1900 50  0001 C CNN
F 1 "GND" H 6955 1977 50  0000 C CNN
F 2 "" H 6950 2150 50  0001 C CNN
F 3 "" H 6950 2150 50  0001 C CNN
	1    6950 2150
	1    0    0    -1  
$EndComp
$Comp
L Device:Rotary_Encoder SW?
U 1 1 6003D311
P 7750 2850
F 0 "SW?" H 7980 2896 50  0000 L CNN
F 1 "Rotary_Encoder" H 7980 2805 50  0000 L CNN
F 2 "" H 7600 3010 50  0001 C CNN
F 3 "~" H 7750 3110 50  0001 C CNN
	1    7750 2850
	1    0    0    -1  
$EndComp
$Comp
L Device:Rotary_Encoder_Switch SW?
U 1 1 6003DB9F
P 7750 3550
F 0 "SW?" H 7750 3917 50  0000 C CNN
F 1 "Rotary_Encoder_Switch" H 7750 3826 50  0000 C CNN
F 2 "" H 7600 3710 50  0001 C CNN
F 3 "~" H 7750 3810 50  0001 C CNN
	1    7750 3550
	1    0    0    -1  
$EndComp
$Comp
L Device:LED D?
U 1 1 60011B7E
P 9375 4750
F 0 "D?" H 9125 4700 50  0000 C CNN
F 1 "LED" H 9500 4675 50  0000 C CNN
F 2 "" H 9375 4750 50  0001 C CNN
F 3 "~" H 9375 4750 50  0001 C CNN
	1    9375 4750
	-1   0    0    1   
$EndComp
$Comp
L Device:R_Pack08 RN?
U 1 1 60014746
P 8000 5200
F 0 "RN?" V 7383 5200 50  0000 C CNN
F 1 "R_Pack08" V 7474 5200 50  0000 C CNN
F 2 "" V 8475 5200 50  0001 C CNN
F 3 "~" H 8000 5200 50  0001 C CNN
	1    8000 5200
	0    1    1    0   
$EndComp
$Comp
L Device:LED D?
U 1 1 60018D67
P 9375 4925
F 0 "D?" H 9125 4875 50  0000 C CNN
F 1 "LED" H 9500 4850 50  0000 C CNN
F 2 "" H 9375 4925 50  0001 C CNN
F 3 "~" H 9375 4925 50  0001 C CNN
	1    9375 4925
	-1   0    0    1   
$EndComp
$Comp
L Device:LED D?
U 1 1 600191F5
P 9375 5100
F 0 "D?" H 9125 5050 50  0000 C CNN
F 1 "LED" H 9500 5025 50  0000 C CNN
F 2 "" H 9375 5100 50  0001 C CNN
F 3 "~" H 9375 5100 50  0001 C CNN
	1    9375 5100
	-1   0    0    1   
$EndComp
$Comp
L Device:LED D?
U 1 1 6001993B
P 9375 5275
F 0 "D?" H 9125 5225 50  0000 C CNN
F 1 "LED" H 9500 5200 50  0000 C CNN
F 2 "" H 9375 5275 50  0001 C CNN
F 3 "~" H 9375 5275 50  0001 C CNN
	1    9375 5275
	-1   0    0    1   
$EndComp
$Comp
L Device:LED D?
U 1 1 60019F25
P 9375 5450
F 0 "D?" H 9125 5400 50  0000 C CNN
F 1 "LED" H 9500 5375 50  0000 C CNN
F 2 "" H 9375 5450 50  0001 C CNN
F 3 "~" H 9375 5450 50  0001 C CNN
	1    9375 5450
	-1   0    0    1   
$EndComp
$Comp
L Device:LED D?
U 1 1 6001A444
P 9375 5600
F 0 "D?" H 9125 5550 50  0000 C CNN
F 1 "LED" H 9500 5525 50  0000 C CNN
F 2 "" H 9375 5600 50  0001 C CNN
F 3 "~" H 9375 5600 50  0001 C CNN
	1    9375 5600
	-1   0    0    1   
$EndComp
$Comp
L Device:LED D?
U 1 1 6001A946
P 9375 5750
F 0 "D?" H 9125 5700 50  0000 C CNN
F 1 "LED" H 9500 5675 50  0000 C CNN
F 2 "" H 9375 5750 50  0001 C CNN
F 3 "~" H 9375 5750 50  0001 C CNN
	1    9375 5750
	-1   0    0    1   
$EndComp
$Comp
L Device:LED D?
U 1 1 6001AEBC
P 9375 4575
F 0 "D?" H 9125 4525 50  0000 C CNN
F 1 "LED" H 9500 4500 50  0000 C CNN
F 2 "" H 9375 4575 50  0001 C CNN
F 3 "~" H 9375 4575 50  0001 C CNN
	1    9375 4575
	-1   0    0    1   
$EndComp
$Comp
L power:GND #PWR?
U 1 1 6001D1BB
P 9975 5850
F 0 "#PWR?" H 9975 5600 50  0001 C CNN
F 1 "GND" H 9980 5677 50  0000 C CNN
F 2 "" H 9975 5850 50  0001 C CNN
F 3 "" H 9975 5850 50  0001 C CNN
	1    9975 5850
	1    0    0    -1  
$EndComp
Wire Wire Line
	9525 4575 9975 4575
Wire Wire Line
	9975 4575 9975 4750
Wire Wire Line
	9525 5750 9975 5750
Connection ~ 9975 5750
Wire Wire Line
	9975 5750 9975 5850
Wire Wire Line
	9525 5600 9975 5600
Connection ~ 9975 5600
Wire Wire Line
	9975 5600 9975 5750
Wire Wire Line
	9525 5450 9975 5450
Connection ~ 9975 5450
Wire Wire Line
	9975 5450 9975 5600
Wire Wire Line
	9525 5275 9975 5275
Connection ~ 9975 5275
Wire Wire Line
	9975 5275 9975 5450
Wire Wire Line
	9525 5100 9975 5100
Connection ~ 9975 5100
Wire Wire Line
	9975 5100 9975 5275
Wire Wire Line
	9525 4925 9975 4925
Connection ~ 9975 4925
Wire Wire Line
	9975 4925 9975 5100
Wire Wire Line
	9525 4750 9975 4750
Connection ~ 9975 4750
Wire Wire Line
	9975 4750 9975 4925
Wire Wire Line
	8200 5100 9225 5100
Wire Wire Line
	8200 5000 8750 5000
Wire Wire Line
	8750 5000 8750 4925
Wire Wire Line
	8750 4925 9225 4925
Wire Wire Line
	8200 5200 8750 5200
Wire Wire Line
	8750 5200 8750 5275
Wire Wire Line
	8750 5275 9225 5275
Wire Wire Line
	8200 5300 8575 5300
Wire Wire Line
	8575 5300 8575 5450
Wire Wire Line
	8575 5450 9225 5450
Wire Wire Line
	8200 5400 8400 5400
Wire Wire Line
	8400 5400 8400 5600
Wire Wire Line
	8400 5600 9225 5600
Wire Wire Line
	8200 5500 8250 5500
Wire Wire Line
	8250 5500 8250 5750
Wire Wire Line
	8250 5750 9225 5750
Wire Wire Line
	8200 4900 8575 4900
Wire Wire Line
	8575 4900 8575 4750
Wire Wire Line
	8575 4750 9225 4750
Wire Wire Line
	8200 4800 8400 4800
Wire Wire Line
	8400 4800 8400 4575
Wire Wire Line
	8400 4575 9225 4575
Text Notes 8925 4550 0    50   ~ 0
N
Text Notes 8925 4725 0    50   ~ 0
NE
Text Notes 8925 4900 0    50   ~ 0
E
Text Notes 8925 5075 0    50   ~ 0
SE
Text Notes 8925 5250 0    50   ~ 0
S
Text Notes 8925 5425 0    50   ~ 0
SW
Text Notes 8925 5575 0    50   ~ 0
W
Text Notes 8925 5725 0    50   ~ 0
NW
Text GLabel 7800 4800 0    50   Input ~ 0
LED_N
Text GLabel 7800 4900 0    50   Input ~ 0
LED_NE
Text GLabel 7800 5000 0    50   Input ~ 0
LED_E
Text GLabel 7800 5100 0    50   Input ~ 0
LED_SE
Text GLabel 7800 5200 0    50   Input ~ 0
LED_S
Text GLabel 7800 5300 0    50   Input ~ 0
LED_SW
Text GLabel 7800 5400 0    50   Input ~ 0
LED_W
Text GLabel 7800 5500 0    50   Input ~ 0
LED_NW
Text GLabel 2250 1825 0    50   Input ~ 0
LED_N
Text GLabel 2250 1925 0    50   Input ~ 0
LED_NE
Text GLabel 2250 2025 0    50   Input ~ 0
LED_E
Text GLabel 2250 2125 0    50   Input ~ 0
LED_SE
Text GLabel 2250 2225 0    50   Input ~ 0
LED_S
Text GLabel 2250 2325 0    50   Input ~ 0
LED_SW
Text GLabel 2250 2425 0    50   Input ~ 0
LED_W
Text GLabel 2250 2525 0    50   Input ~ 0
LED_NW
Text GLabel 7025 2750 0    50   Input ~ 0
ENCODER_A
Text GLabel 7025 2950 0    50   Input ~ 0
ENCODER_B
Text GLabel 2275 2750 0    50   Input ~ 0
ENCODER_A
Text GLabel 2275 2950 0    50   Input ~ 0
ENCODER_B
$Comp
L Device:R_Pack04 RN?
U 1 1 60068604
P 9550 3175
F 0 "RN?" V 9133 3175 50  0000 C CNN
F 1 "R_Pack04" V 9224 3175 50  0000 C CNN
F 2 "" V 9825 3175 50  0001 C CNN
F 3 "~" H 9550 3175 50  0001 C CNN
	1    9550 3175
	0    1    1    0   
$EndComp
$Comp
L Switch:SW_Push SW?
U 1 1 6006A93F
P 10375 2700
F 0 "SW?" H 10600 2775 50  0000 C CNN
F 1 "SW_Push" H 10100 2800 50  0000 C CNN
F 2 "" H 10375 2900 50  0001 C CNN
F 3 "~" H 10375 2900 50  0001 C CNN
	1    10375 2700
	1    0    0    -1  
$EndComp
$Comp
L Switch:SW_Push SW?
U 1 1 6006BBA0
P 10375 3000
F 0 "SW?" H 10600 3075 50  0000 C CNN
F 1 "SW_Push" H 10100 3100 50  0000 C CNN
F 2 "" H 10375 3200 50  0001 C CNN
F 3 "~" H 10375 3200 50  0001 C CNN
	1    10375 3000
	1    0    0    -1  
$EndComp
$Comp
L Switch:SW_Push SW?
U 1 1 6006C02F
P 10375 3275
F 0 "SW?" H 10600 3350 50  0000 C CNN
F 1 "SW_Push" H 10100 3375 50  0000 C CNN
F 2 "" H 10375 3475 50  0001 C CNN
F 3 "~" H 10375 3475 50  0001 C CNN
	1    10375 3275
	1    0    0    -1  
$EndComp
$Comp
L Switch:SW_Push SW?
U 1 1 6006C251
P 10375 3525
F 0 "SW?" H 10600 3600 50  0000 C CNN
F 1 "SW_Push" H 10100 3625 50  0000 C CNN
F 2 "" H 10375 3725 50  0001 C CNN
F 3 "~" H 10375 3725 50  0001 C CNN
	1    10375 3525
	1    0    0    -1  
$EndComp
$EndSCHEMATC
