(module ATSAMC21E15A-MUT (layer F.Cu) (tedit 5EC2F917)
  (fp_text reference U1 (at 0 0) (layer F.SilkS)
    (effects (font (size 1 1) (thickness 0.15)))
  )
  (fp_text value QFN32_5X5MC_MCH (at 0 0) (layer F.SilkS)
    (effects (font (size 1 1) (thickness 0.15)))
  )
  (fp_text user "Copyright 2016 Accelerated Designs. All rights reserved." (at 0 0) (layer Cmts.User)
    (effects (font (size 0.127 0.127) (thickness 0.002)))
  )
  (fp_text user * (at -3.4925 -2.032) (layer F.SilkS)
    (effects (font (size 1 1) (thickness 0.15)))
  )
  (fp_text user * (at -2.0447 -2.032) (layer F.Fab)
    (effects (font (size 1 1) (thickness 0.15)))
  )
  (fp_text user 0.02in/0.508mm (at -4.4831 -1.524) (layer Dwgs.User)
    (effects (font (size 1 1) (thickness 0.15)))
  )
  (fp_text user 0.032in/0.813mm (at -2.4511 -5.4991) (layer Dwgs.User)
    (effects (font (size 1 1) (thickness 0.15)))
  )
  (fp_text user 0.008in/0.203mm (at -5.4991 2.4511) (layer Dwgs.User)
    (effects (font (size 1 1) (thickness 0.15)))
  )
  (fp_text user 0.193in/4.902mm (at 0 8.0391) (layer Dwgs.User)
    (effects (font (size 1 1) (thickness 0.15)))
  )
  (fp_text user 0.193in/4.902mm (at 0 8.0391) (layer Dwgs.User)
    (effects (font (size 1 1) (thickness 0.15)))
  )
  (fp_text user 0.134in/3.404mm (at 0 4.7498) (layer Dwgs.User)
    (effects (font (size 1 1) (thickness 0.15)))
  )
  (fp_text user 0.134in/3.404mm (at 0 4.7498) (layer Dwgs.User)
    (effects (font (size 1 1) (thickness 0.15)))
  )
  (fp_text user * (at -3.4925 -2.032) (layer F.SilkS)
    (effects (font (size 1 1) (thickness 0.15)))
  )
  (fp_text user * (at -3.4925 -2.032) (layer F.SilkS)
    (effects (font (size 1 1) (thickness 0.15)))
  )
  (fp_line (start -2.4765 -1.2065) (end -1.2065 -2.4765) (layer F.Fab) (width 0.1524))
  (fp_line (start 1.6256 -2.4765) (end 1.9304 -2.4765) (layer F.Fab) (width 0.1524))
  (fp_line (start 1.9304 -2.4765) (end 1.9304 -2.5527) (layer F.Fab) (width 0.1524))
  (fp_line (start 1.9304 -2.5527) (end 1.6256 -2.5527) (layer F.Fab) (width 0.1524))
  (fp_line (start 1.6256 -2.5527) (end 1.6256 -2.4765) (layer F.Fab) (width 0.1524))
  (fp_line (start 1.1176 -2.4765) (end 1.4224 -2.4765) (layer F.Fab) (width 0.1524))
  (fp_line (start 1.4224 -2.4765) (end 1.4224 -2.5527) (layer F.Fab) (width 0.1524))
  (fp_line (start 1.4224 -2.5527) (end 1.1176 -2.5527) (layer F.Fab) (width 0.1524))
  (fp_line (start 1.1176 -2.5527) (end 1.1176 -2.4765) (layer F.Fab) (width 0.1524))
  (fp_line (start 0.6096 -2.4765) (end 0.9144 -2.4765) (layer F.Fab) (width 0.1524))
  (fp_line (start 0.9144 -2.4765) (end 0.9144 -2.5527) (layer F.Fab) (width 0.1524))
  (fp_line (start 0.9144 -2.5527) (end 0.6096 -2.5527) (layer F.Fab) (width 0.1524))
  (fp_line (start 0.6096 -2.5527) (end 0.6096 -2.4765) (layer F.Fab) (width 0.1524))
  (fp_line (start 0.1016 -2.4765) (end 0.4064 -2.4765) (layer F.Fab) (width 0.1524))
  (fp_line (start 0.4064 -2.4765) (end 0.4064 -2.5527) (layer F.Fab) (width 0.1524))
  (fp_line (start 0.4064 -2.5527) (end 0.1016 -2.5527) (layer F.Fab) (width 0.1524))
  (fp_line (start 0.1016 -2.5527) (end 0.1016 -2.4765) (layer F.Fab) (width 0.1524))
  (fp_line (start -0.4064 -2.4765) (end -0.1016 -2.4765) (layer F.Fab) (width 0.1524))
  (fp_line (start -0.1016 -2.4765) (end -0.1016 -2.5527) (layer F.Fab) (width 0.1524))
  (fp_line (start -0.1016 -2.5527) (end -0.4064 -2.5527) (layer F.Fab) (width 0.1524))
  (fp_line (start -0.4064 -2.5527) (end -0.4064 -2.4765) (layer F.Fab) (width 0.1524))
  (fp_line (start -0.9144 -2.4765) (end -0.6096 -2.4765) (layer F.Fab) (width 0.1524))
  (fp_line (start -0.6096 -2.4765) (end -0.6096 -2.5527) (layer F.Fab) (width 0.1524))
  (fp_line (start -0.6096 -2.5527) (end -0.9144 -2.5527) (layer F.Fab) (width 0.1524))
  (fp_line (start -0.9144 -2.5527) (end -0.9144 -2.4765) (layer F.Fab) (width 0.1524))
  (fp_line (start -1.4224 -2.4765) (end -1.1176 -2.4765) (layer F.Fab) (width 0.1524))
  (fp_line (start -1.1176 -2.4765) (end -1.1176 -2.5527) (layer F.Fab) (width 0.1524))
  (fp_line (start -1.1176 -2.5527) (end -1.4224 -2.5527) (layer F.Fab) (width 0.1524))
  (fp_line (start -1.4224 -2.5527) (end -1.4224 -2.4765) (layer F.Fab) (width 0.1524))
  (fp_line (start -1.9304 -2.4765) (end -1.6256 -2.4765) (layer F.Fab) (width 0.1524))
  (fp_line (start -1.6256 -2.4765) (end -1.6256 -2.5527) (layer F.Fab) (width 0.1524))
  (fp_line (start -1.6256 -2.5527) (end -1.9304 -2.5527) (layer F.Fab) (width 0.1524))
  (fp_line (start -1.9304 -2.5527) (end -1.9304 -2.4765) (layer F.Fab) (width 0.1524))
  (fp_line (start -2.4765 -1.6256) (end -2.4765 -1.9304) (layer F.Fab) (width 0.1524))
  (fp_line (start -2.4765 -1.9304) (end -2.5527 -1.9304) (layer F.Fab) (width 0.1524))
  (fp_line (start -2.5527 -1.9304) (end -2.5527 -1.6256) (layer F.Fab) (width 0.1524))
  (fp_line (start -2.5527 -1.6256) (end -2.4765 -1.6256) (layer F.Fab) (width 0.1524))
  (fp_line (start -2.4765 -1.1176) (end -2.4765 -1.4224) (layer F.Fab) (width 0.1524))
  (fp_line (start -2.4765 -1.4224) (end -2.5527 -1.4224) (layer F.Fab) (width 0.1524))
  (fp_line (start -2.5527 -1.4224) (end -2.5527 -1.1176) (layer F.Fab) (width 0.1524))
  (fp_line (start -2.5527 -1.1176) (end -2.4765 -1.1176) (layer F.Fab) (width 0.1524))
  (fp_line (start -2.4765 -0.6096) (end -2.4765 -0.9144) (layer F.Fab) (width 0.1524))
  (fp_line (start -2.4765 -0.9144) (end -2.5527 -0.9144) (layer F.Fab) (width 0.1524))
  (fp_line (start -2.5527 -0.9144) (end -2.5527 -0.6096) (layer F.Fab) (width 0.1524))
  (fp_line (start -2.5527 -0.6096) (end -2.4765 -0.6096) (layer F.Fab) (width 0.1524))
  (fp_line (start -2.4765 -0.1016) (end -2.4765 -0.4064) (layer F.Fab) (width 0.1524))
  (fp_line (start -2.4765 -0.4064) (end -2.5527 -0.4064) (layer F.Fab) (width 0.1524))
  (fp_line (start -2.5527 -0.4064) (end -2.5527 -0.1016) (layer F.Fab) (width 0.1524))
  (fp_line (start -2.5527 -0.1016) (end -2.4765 -0.1016) (layer F.Fab) (width 0.1524))
  (fp_line (start -2.4765 0.4064) (end -2.4765 0.1016) (layer F.Fab) (width 0.1524))
  (fp_line (start -2.4765 0.1016) (end -2.5527 0.1016) (layer F.Fab) (width 0.1524))
  (fp_line (start -2.5527 0.1016) (end -2.5527 0.4064) (layer F.Fab) (width 0.1524))
  (fp_line (start -2.5527 0.4064) (end -2.4765 0.4064) (layer F.Fab) (width 0.1524))
  (fp_line (start -2.4765 0.9144) (end -2.4765 0.6096) (layer F.Fab) (width 0.1524))
  (fp_line (start -2.4765 0.6096) (end -2.5527 0.6096) (layer F.Fab) (width 0.1524))
  (fp_line (start -2.5527 0.6096) (end -2.5527 0.9144) (layer F.Fab) (width 0.1524))
  (fp_line (start -2.5527 0.9144) (end -2.4765 0.9144) (layer F.Fab) (width 0.1524))
  (fp_line (start -2.4765 1.4224) (end -2.4765 1.1176) (layer F.Fab) (width 0.1524))
  (fp_line (start -2.4765 1.1176) (end -2.5527 1.1176) (layer F.Fab) (width 0.1524))
  (fp_line (start -2.5527 1.1176) (end -2.5527 1.4224) (layer F.Fab) (width 0.1524))
  (fp_line (start -2.5527 1.4224) (end -2.4765 1.4224) (layer F.Fab) (width 0.1524))
  (fp_line (start -2.4765 1.9304) (end -2.4765 1.6256) (layer F.Fab) (width 0.1524))
  (fp_line (start -2.4765 1.6256) (end -2.5527 1.6256) (layer F.Fab) (width 0.1524))
  (fp_line (start -2.5527 1.6256) (end -2.5527 1.9304) (layer F.Fab) (width 0.1524))
  (fp_line (start -2.5527 1.9304) (end -2.4765 1.9304) (layer F.Fab) (width 0.1524))
  (fp_line (start -1.6256 2.4765) (end -1.9304 2.4765) (layer F.Fab) (width 0.1524))
  (fp_line (start -1.9304 2.4765) (end -1.9304 2.5527) (layer F.Fab) (width 0.1524))
  (fp_line (start -1.9304 2.5527) (end -1.6256 2.5527) (layer F.Fab) (width 0.1524))
  (fp_line (start -1.6256 2.5527) (end -1.6256 2.4765) (layer F.Fab) (width 0.1524))
  (fp_line (start -1.1176 2.4765) (end -1.4224 2.4765) (layer F.Fab) (width 0.1524))
  (fp_line (start -1.4224 2.4765) (end -1.4224 2.5527) (layer F.Fab) (width 0.1524))
  (fp_line (start -1.4224 2.5527) (end -1.1176 2.5527) (layer F.Fab) (width 0.1524))
  (fp_line (start -1.1176 2.5527) (end -1.1176 2.4765) (layer F.Fab) (width 0.1524))
  (fp_line (start -0.6096 2.4765) (end -0.9144 2.4765) (layer F.Fab) (width 0.1524))
  (fp_line (start -0.9144 2.4765) (end -0.9144 2.5527) (layer F.Fab) (width 0.1524))
  (fp_line (start -0.9144 2.5527) (end -0.6096 2.5527) (layer F.Fab) (width 0.1524))
  (fp_line (start -0.6096 2.5527) (end -0.6096 2.4765) (layer F.Fab) (width 0.1524))
  (fp_line (start -0.1016 2.4765) (end -0.4064 2.4765) (layer F.Fab) (width 0.1524))
  (fp_line (start -0.4064 2.4765) (end -0.4064 2.5527) (layer F.Fab) (width 0.1524))
  (fp_line (start -0.4064 2.5527) (end -0.1016 2.5527) (layer F.Fab) (width 0.1524))
  (fp_line (start -0.1016 2.5527) (end -0.1016 2.4765) (layer F.Fab) (width 0.1524))
  (fp_line (start 0.4064 2.4765) (end 0.1016 2.4765) (layer F.Fab) (width 0.1524))
  (fp_line (start 0.1016 2.4765) (end 0.1016 2.5527) (layer F.Fab) (width 0.1524))
  (fp_line (start 0.1016 2.5527) (end 0.4064 2.5527) (layer F.Fab) (width 0.1524))
  (fp_line (start 0.4064 2.5527) (end 0.4064 2.4765) (layer F.Fab) (width 0.1524))
  (fp_line (start 0.9144 2.4765) (end 0.6096 2.4765) (layer F.Fab) (width 0.1524))
  (fp_line (start 0.6096 2.4765) (end 0.6096 2.5527) (layer F.Fab) (width 0.1524))
  (fp_line (start 0.6096 2.5527) (end 0.9144 2.5527) (layer F.Fab) (width 0.1524))
  (fp_line (start 0.9144 2.5527) (end 0.9144 2.4765) (layer F.Fab) (width 0.1524))
  (fp_line (start 1.4224 2.4765) (end 1.1176 2.4765) (layer F.Fab) (width 0.1524))
  (fp_line (start 1.1176 2.4765) (end 1.1176 2.5527) (layer F.Fab) (width 0.1524))
  (fp_line (start 1.1176 2.5527) (end 1.4224 2.5527) (layer F.Fab) (width 0.1524))
  (fp_line (start 1.4224 2.5527) (end 1.4224 2.4765) (layer F.Fab) (width 0.1524))
  (fp_line (start 1.9304 2.4765) (end 1.6256 2.4765) (layer F.Fab) (width 0.1524))
  (fp_line (start 1.6256 2.4765) (end 1.6256 2.5527) (layer F.Fab) (width 0.1524))
  (fp_line (start 1.6256 2.5527) (end 1.9304 2.5527) (layer F.Fab) (width 0.1524))
  (fp_line (start 1.9304 2.5527) (end 1.9304 2.4765) (layer F.Fab) (width 0.1524))
  (fp_line (start 2.4765 1.6256) (end 2.4765 1.9304) (layer F.Fab) (width 0.1524))
  (fp_line (start 2.4765 1.9304) (end 2.5527 1.9304) (layer F.Fab) (width 0.1524))
  (fp_line (start 2.5527 1.9304) (end 2.5527 1.6256) (layer F.Fab) (width 0.1524))
  (fp_line (start 2.5527 1.6256) (end 2.4765 1.6256) (layer F.Fab) (width 0.1524))
  (fp_line (start 2.4765 1.1176) (end 2.4765 1.4224) (layer F.Fab) (width 0.1524))
  (fp_line (start 2.4765 1.4224) (end 2.5527 1.4224) (layer F.Fab) (width 0.1524))
  (fp_line (start 2.5527 1.4224) (end 2.5527 1.1176) (layer F.Fab) (width 0.1524))
  (fp_line (start 2.5527 1.1176) (end 2.4765 1.1176) (layer F.Fab) (width 0.1524))
  (fp_line (start 2.4765 0.6096) (end 2.4765 0.9144) (layer F.Fab) (width 0.1524))
  (fp_line (start 2.4765 0.9144) (end 2.5527 0.9144) (layer F.Fab) (width 0.1524))
  (fp_line (start 2.5527 0.9144) (end 2.5527 0.6096) (layer F.Fab) (width 0.1524))
  (fp_line (start 2.5527 0.6096) (end 2.4765 0.6096) (layer F.Fab) (width 0.1524))
  (fp_line (start 2.4765 0.1016) (end 2.4765 0.4064) (layer F.Fab) (width 0.1524))
  (fp_line (start 2.4765 0.4064) (end 2.5527 0.4064) (layer F.Fab) (width 0.1524))
  (fp_line (start 2.5527 0.4064) (end 2.5527 0.1016) (layer F.Fab) (width 0.1524))
  (fp_line (start 2.5527 0.1016) (end 2.4765 0.1016) (layer F.Fab) (width 0.1524))
  (fp_line (start 2.4765 -0.4064) (end 2.4765 -0.1016) (layer F.Fab) (width 0.1524))
  (fp_line (start 2.4765 -0.1016) (end 2.5527 -0.1016) (layer F.Fab) (width 0.1524))
  (fp_line (start 2.5527 -0.1016) (end 2.5527 -0.4064) (layer F.Fab) (width 0.1524))
  (fp_line (start 2.5527 -0.4064) (end 2.4765 -0.4064) (layer F.Fab) (width 0.1524))
  (fp_line (start 2.4765 -0.9144) (end 2.4765 -0.6096) (layer F.Fab) (width 0.1524))
  (fp_line (start 2.4765 -0.6096) (end 2.5527 -0.6096) (layer F.Fab) (width 0.1524))
  (fp_line (start 2.5527 -0.6096) (end 2.5527 -0.9144) (layer F.Fab) (width 0.1524))
  (fp_line (start 2.5527 -0.9144) (end 2.4765 -0.9144) (layer F.Fab) (width 0.1524))
  (fp_line (start 2.4765 -1.4224) (end 2.4765 -1.1176) (layer F.Fab) (width 0.1524))
  (fp_line (start 2.4765 -1.1176) (end 2.5527 -1.1176) (layer F.Fab) (width 0.1524))
  (fp_line (start 2.5527 -1.1176) (end 2.5527 -1.4224) (layer F.Fab) (width 0.1524))
  (fp_line (start 2.5527 -1.4224) (end 2.4765 -1.4224) (layer F.Fab) (width 0.1524))
  (fp_line (start 2.4765 -1.9304) (end 2.4765 -1.6256) (layer F.Fab) (width 0.1524))
  (fp_line (start 2.4765 -1.6256) (end 2.5527 -1.6256) (layer F.Fab) (width 0.1524))
  (fp_line (start 2.5527 -1.6256) (end 2.5527 -1.9304) (layer F.Fab) (width 0.1524))
  (fp_line (start 2.5527 -1.9304) (end 2.4765 -1.9304) (layer F.Fab) (width 0.1524))
  (fp_line (start -2.6035 2.6035) (end -2.21234 2.6035) (layer F.SilkS) (width 0.1524))
  (fp_line (start 2.6035 2.6035) (end 2.6035 2.21234) (layer F.SilkS) (width 0.1524))
  (fp_line (start 2.6035 -2.6035) (end 2.21234 -2.6035) (layer F.SilkS) (width 0.1524))
  (fp_line (start -2.6035 -2.6035) (end -2.6035 -2.21234) (layer F.SilkS) (width 0.1524))
  (fp_line (start -2.6035 2.21234) (end -2.6035 2.6035) (layer F.SilkS) (width 0.1524))
  (fp_line (start -2.4765 2.4765) (end 2.4765 2.4765) (layer F.Fab) (width 0.1524))
  (fp_line (start 2.4765 2.4765) (end 2.4765 2.4765) (layer F.Fab) (width 0.1524))
  (fp_line (start 2.4765 2.4765) (end 2.4765 -2.4765) (layer F.Fab) (width 0.1524))
  (fp_line (start 2.4765 -2.4765) (end 2.4765 -2.4765) (layer F.Fab) (width 0.1524))
  (fp_line (start 2.4765 -2.4765) (end -2.4765 -2.4765) (layer F.Fab) (width 0.1524))
  (fp_line (start -2.4765 -2.4765) (end -2.4765 -2.4765) (layer F.Fab) (width 0.1524))
  (fp_line (start -2.4765 -2.4765) (end -2.4765 2.4765) (layer F.Fab) (width 0.1524))
  (fp_line (start -2.4765 2.4765) (end -2.4765 2.4765) (layer F.Fab) (width 0.1524))
  (fp_line (start 2.21234 2.6035) (end 2.6035 2.6035) (layer F.SilkS) (width 0.1524))
  (fp_line (start 2.6035 -2.21234) (end 2.6035 -2.6035) (layer F.SilkS) (width 0.1524))
  (fp_line (start -2.21234 -2.6035) (end -2.6035 -2.6035) (layer F.SilkS) (width 0.1524))
  (fp_line (start -1.4605 3.1115) (end -1.4605 3.3655) (layer F.SilkS) (width 0.1524))
  (fp_line (start -1.4605 3.3655) (end -1.0795 3.3655) (layer F.SilkS) (width 0.1524))
  (fp_line (start -1.0795 3.3655) (end -1.0795 3.1115) (layer F.SilkS) (width 0.1524))
  (fp_line (start -1.0795 3.1115) (end -1.4605 3.1115) (layer F.SilkS) (width 0.1524))
  (fp_line (start 3.3655 0.0635) (end 3.3655 0.4445) (layer F.SilkS) (width 0.1524))
  (fp_line (start 3.3655 0.4445) (end 3.1115 0.4445) (layer F.SilkS) (width 0.1524))
  (fp_line (start 3.1115 0.4445) (end 3.1115 0.0635) (layer F.SilkS) (width 0.1524))
  (fp_line (start 3.1115 0.0635) (end 3.3655 0.0635) (layer F.SilkS) (width 0.1524))
  (fp_line (start -0.9525 -3.1115) (end -0.9525 -3.3655) (layer F.SilkS) (width 0.1524))
  (fp_line (start -0.9525 -3.3655) (end -0.5715 -3.3655) (layer F.SilkS) (width 0.1524))
  (fp_line (start -0.5715 -3.3655) (end -0.5715 -3.1115) (layer F.SilkS) (width 0.1524))
  (fp_line (start -0.5715 -3.1115) (end -0.9525 -3.1115) (layer F.SilkS) (width 0.1524))
  (fp_line (start -1.6018 -1.6018) (end -1.6018 -0.1) (layer F.Paste) (width 0.1524))
  (fp_line (start -1.6018 -0.1) (end -0.1 -0.1) (layer F.Paste) (width 0.1524))
  (fp_line (start -0.1 -0.1) (end -0.1 -1.6018) (layer F.Paste) (width 0.1524))
  (fp_line (start -0.1 -1.6018) (end -1.6018 -1.6018) (layer F.Paste) (width 0.1524))
  (fp_line (start -1.6018 0.1) (end -1.6018 1.6018) (layer F.Paste) (width 0.1524))
  (fp_line (start -1.6018 1.6018) (end -0.1 1.6018) (layer F.Paste) (width 0.1524))
  (fp_line (start -0.1 1.6018) (end -0.1 0.1) (layer F.Paste) (width 0.1524))
  (fp_line (start -0.1 0.1) (end -1.6018 0.1) (layer F.Paste) (width 0.1524))
  (fp_line (start 0.1 -1.6018) (end 0.1 -0.1) (layer F.Paste) (width 0.1524))
  (fp_line (start 0.1 -0.1) (end 1.6018 -0.1) (layer F.Paste) (width 0.1524))
  (fp_line (start 1.6018 -0.1) (end 1.6018 -1.6018) (layer F.Paste) (width 0.1524))
  (fp_line (start 1.6018 -1.6018) (end 0.1 -1.6018) (layer F.Paste) (width 0.1524))
  (fp_line (start 0.1 0.1) (end 0.1 1.6018) (layer F.Paste) (width 0.1524))
  (fp_line (start 0.1 1.6018) (end 1.6018 1.6018) (layer F.Paste) (width 0.1524))
  (fp_line (start 1.6018 1.6018) (end 1.6018 0.1) (layer F.Paste) (width 0.1524))
  (fp_line (start 1.6018 0.1) (end 0.1 0.1) (layer F.Paste) (width 0.1524))
  (fp_line (start -2.7305 2.7305) (end -2.7305 2.1336) (layer F.CrtYd) (width 0.1524))
  (fp_line (start -2.7305 2.1336) (end -3.1115 2.1336) (layer F.CrtYd) (width 0.1524))
  (fp_line (start -3.1115 2.1336) (end -3.1115 -2.1336) (layer F.CrtYd) (width 0.1524))
  (fp_line (start -3.1115 -2.1336) (end -2.7305 -2.1336) (layer F.CrtYd) (width 0.1524))
  (fp_line (start -2.7305 -2.1336) (end -2.7305 -2.7305) (layer F.CrtYd) (width 0.1524))
  (fp_line (start -2.7305 -2.7305) (end -2.1336 -2.7305) (layer F.CrtYd) (width 0.1524))
  (fp_line (start -2.1336 -2.7305) (end -2.1336 -3.1115) (layer F.CrtYd) (width 0.1524))
  (fp_line (start -2.1336 -3.1115) (end 2.1336 -3.1115) (layer F.CrtYd) (width 0.1524))
  (fp_line (start 2.1336 -3.1115) (end 2.1336 -2.7305) (layer F.CrtYd) (width 0.1524))
  (fp_line (start 2.1336 -2.7305) (end 2.7305 -2.7305) (layer F.CrtYd) (width 0.1524))
  (fp_line (start 2.7305 -2.7305) (end 2.7305 -2.1336) (layer F.CrtYd) (width 0.1524))
  (fp_line (start 2.7305 -2.1336) (end 3.1115 -2.1336) (layer F.CrtYd) (width 0.1524))
  (fp_line (start 3.1115 -2.1336) (end 3.1115 2.1336) (layer F.CrtYd) (width 0.1524))
  (fp_line (start 3.1115 2.1336) (end 2.7305 2.1336) (layer F.CrtYd) (width 0.1524))
  (fp_line (start 2.7305 2.1336) (end 2.7305 2.7305) (layer F.CrtYd) (width 0.1524))
  (fp_line (start 2.7305 2.7305) (end 2.1336 2.7305) (layer F.CrtYd) (width 0.1524))
  (fp_line (start 2.1336 2.7305) (end 2.1336 3.1115) (layer F.CrtYd) (width 0.1524))
  (fp_line (start 2.1336 3.1115) (end -2.1336 3.1115) (layer F.CrtYd) (width 0.1524))
  (fp_line (start -2.1336 3.1115) (end -2.1336 2.7305) (layer F.CrtYd) (width 0.1524))
  (fp_line (start -2.1336 2.7305) (end -2.7305 2.7305) (layer F.CrtYd) (width 0.1524))
  (pad 1 smd rect (at -2.4511 -1.778 90) (size 0.2032 0.8128) (layers F.Cu F.Paste F.Mask))
  (pad 2 smd rect (at -2.4511 -1.27 90) (size 0.2032 0.8128) (layers F.Cu F.Paste F.Mask))
  (pad 3 smd rect (at -2.4511 -0.762 90) (size 0.2032 0.8128) (layers F.Cu F.Paste F.Mask))
  (pad 4 smd rect (at -2.4511 -0.254 90) (size 0.2032 0.8128) (layers F.Cu F.Paste F.Mask))
  (pad 5 smd rect (at -2.4511 0.254 90) (size 0.2032 0.8128) (layers F.Cu F.Paste F.Mask))
  (pad 6 smd rect (at -2.4511 0.762 90) (size 0.2032 0.8128) (layers F.Cu F.Paste F.Mask))
  (pad 7 smd rect (at -2.4511 1.27 90) (size 0.2032 0.8128) (layers F.Cu F.Paste F.Mask))
  (pad 8 smd rect (at -2.4511 1.778 90) (size 0.2032 0.8128) (layers F.Cu F.Paste F.Mask))
  (pad 9 smd rect (at -1.778 2.4511) (size 0.2032 0.8128) (layers F.Cu F.Paste F.Mask))
  (pad 10 smd rect (at -1.27 2.4511) (size 0.2032 0.8128) (layers F.Cu F.Paste F.Mask))
  (pad 11 smd rect (at -0.762 2.4511) (size 0.2032 0.8128) (layers F.Cu F.Paste F.Mask))
  (pad 12 smd rect (at -0.254 2.4511) (size 0.2032 0.8128) (layers F.Cu F.Paste F.Mask))
  (pad 13 smd rect (at 0.254 2.4511) (size 0.2032 0.8128) (layers F.Cu F.Paste F.Mask))
  (pad 14 smd rect (at 0.762 2.4511) (size 0.2032 0.8128) (layers F.Cu F.Paste F.Mask))
  (pad 15 smd rect (at 1.27 2.4511) (size 0.2032 0.8128) (layers F.Cu F.Paste F.Mask))
  (pad 16 smd rect (at 1.778 2.4511) (size 0.2032 0.8128) (layers F.Cu F.Paste F.Mask))
  (pad 17 smd rect (at 2.4511 1.778 90) (size 0.2032 0.8128) (layers F.Cu F.Paste F.Mask))
  (pad 18 smd rect (at 2.4511 1.27 90) (size 0.2032 0.8128) (layers F.Cu F.Paste F.Mask))
  (pad 19 smd rect (at 2.4511 0.762 90) (size 0.2032 0.8128) (layers F.Cu F.Paste F.Mask))
  (pad 20 smd rect (at 2.4511 0.254 90) (size 0.2032 0.8128) (layers F.Cu F.Paste F.Mask))
  (pad 21 smd rect (at 2.4511 -0.254 90) (size 0.2032 0.8128) (layers F.Cu F.Paste F.Mask))
  (pad 22 smd rect (at 2.4511 -0.762 90) (size 0.2032 0.8128) (layers F.Cu F.Paste F.Mask))
  (pad 23 smd rect (at 2.4511 -1.27 90) (size 0.2032 0.8128) (layers F.Cu F.Paste F.Mask))
  (pad 24 smd rect (at 2.4511 -1.778 90) (size 0.2032 0.8128) (layers F.Cu F.Paste F.Mask))
  (pad 25 smd rect (at 1.778 -2.4511) (size 0.2032 0.8128) (layers F.Cu F.Paste F.Mask))
  (pad 26 smd rect (at 1.27 -2.4511) (size 0.2032 0.8128) (layers F.Cu F.Paste F.Mask))
  (pad 27 smd rect (at 0.762 -2.4511) (size 0.2032 0.8128) (layers F.Cu F.Paste F.Mask))
  (pad 28 smd rect (at 0.254 -2.4511) (size 0.2032 0.8128) (layers F.Cu F.Paste F.Mask))
  (pad 29 smd rect (at -0.254 -2.4511) (size 0.2032 0.8128) (layers F.Cu F.Paste F.Mask))
  (pad 30 smd rect (at -0.762 -2.4511) (size 0.2032 0.8128) (layers F.Cu F.Paste F.Mask))
  (pad 31 smd rect (at -1.27 -2.4511) (size 0.2032 0.8128) (layers F.Cu F.Paste F.Mask))
  (pad 32 smd rect (at -1.778 -2.4511) (size 0.2032 0.8128) (layers F.Cu F.Paste F.Mask))
  (pad 33 smd rect (at 0 0) (size 3.4036 3.4036) (layers F.Cu F.Paste F.Mask))
  (model ${KIPRJMOD}/project_libraries/_projectStepFiles/QFN32_5X5MC_MCH.step
    (at (xyz 0 0 0))
    (scale (xyz 1 1 1))
    (rotate (xyz 0 0 0))
  )
)
