(module DR331105BE (layer F.Cu) (tedit 5FD6E26A)
  (descr DR331-105BE-1)
  (tags Inductor)
  (attr smd)
  (fp_text reference T11 (at -1.15 0) (layer F.SilkS)
    (effects (font (size 1.27 1.27) (thickness 0.254)))
  )
  (fp_text value DR331-105BE (at -1.15 0) (layer Dwgs.User) hide
    (effects (font (size 1.27 1.27) (thickness 0.254)))
  )
  (fp_line (start -4.7 -2.45) (end -4.7 -2.45) (layer F.SilkS) (width 0.2))
  (fp_line (start -4.6 -2.45) (end -4.6 -2.45) (layer F.SilkS) (width 0.2))
  (fp_line (start -4.7 -2.45) (end -4.7 -2.45) (layer F.SilkS) (width 0.2))
  (fp_line (start -5.85 3.7) (end -5.85 -3.7) (layer F.CrtYd) (width 0.1))
  (fp_line (start 5.85 3.7) (end -5.85 3.7) (layer F.CrtYd) (width 0.1))
  (fp_line (start 5.85 -3.7) (end 5.85 3.7) (layer F.CrtYd) (width 0.1))
  (fp_line (start -5.85 -3.7) (end 5.85 -3.7) (layer F.CrtYd) (width 0.1))
  (fp_line (start 3.65 2.7) (end 3.65 2.7) (layer F.SilkS) (width 0.1))
  (fp_line (start -3.65 2.7) (end 3.65 2.7) (layer F.SilkS) (width 0.1))
  (fp_line (start -3.65 2.7) (end -3.65 2.7) (layer F.SilkS) (width 0.1))
  (fp_line (start 3.65 2.7) (end -3.65 2.7) (layer F.SilkS) (width 0.1))
  (fp_line (start -3.7 -2.7) (end -3.7 -2.7) (layer F.SilkS) (width 0.1))
  (fp_line (start 3.65 -2.7) (end -3.7 -2.7) (layer F.SilkS) (width 0.1))
  (fp_line (start 3.65 -2.7) (end 3.65 -2.7) (layer F.SilkS) (width 0.1))
  (fp_line (start -3.7 -2.7) (end 3.65 -2.7) (layer F.SilkS) (width 0.1))
  (fp_line (start -3.65 -2.7) (end -3.65 2.7) (layer F.Fab) (width 0.2))
  (fp_line (start 3.65 -2.7) (end -3.65 -2.7) (layer F.Fab) (width 0.2))
  (fp_line (start 3.65 2.7) (end 3.65 -2.7) (layer F.Fab) (width 0.2))
  (fp_line (start -3.65 2.7) (end 3.65 2.7) (layer F.Fab) (width 0.2))
  (fp_arc (start -4.65 -2.45) (end -4.7 -2.45) (angle -180) (layer F.SilkS) (width 0.2))
  (fp_arc (start -4.65 -2.45) (end -4.6 -2.45) (angle -180) (layer F.SilkS) (width 0.2))
  (fp_arc (start -4.65 -2.45) (end -4.7 -2.45) (angle -180) (layer F.SilkS) (width 0.2))
  (fp_text user %R (at -1.15 0) (layer F.Fab)
    (effects (font (size 1.27 1.27) (thickness 0.254)))
  )
  (pad 4 smd rect (at 3.7 -1.25 90) (size 1.2 2.2) (layers F.Cu F.Paste F.Mask))
  (pad 3 smd rect (at 3.7 1.25 90) (size 1.2 2.2) (layers F.Cu F.Paste F.Mask))
  (pad 2 smd rect (at -3.7 1.25 90) (size 1.2 2.2) (layers F.Cu F.Paste F.Mask))
  (pad 1 smd rect (at -3.7 -1.25 90) (size 1.2 2.2) (layers F.Cu F.Paste F.Mask))
  (model ${KIPRJMOD}/project_libraries/_projectStepFiles/DR331-105BE.stp
    (at (xyz 0 0 0))
    (scale (xyz 1 1 1))
    (rotate (xyz 0 0 0))
  )
)
