(module EC2-5NU (layer F.Cu) (tedit 5FD6E91C)
  (fp_text reference K4 (at 2.54 6.3627) (layer F.SilkS)
    (effects (font (size 1 1) (thickness 0.15)))
  )
  (fp_text value Relay_EC2 (at 2.54 6.3627) (layer Dwgs.User)
    (effects (font (size 1 1) (thickness 0.15)))
  )
  (fp_circle (center 0.635 0) (end 0.635 0) (layer F.Fab) (width 0.1524))
  (fp_line (start 6.2865 13.8684) (end -1.2065 13.8684) (layer F.CrtYd) (width 0.1524))
  (fp_line (start 6.2865 -1.143) (end 6.2865 13.8684) (layer F.CrtYd) (width 0.1524))
  (fp_line (start -1.2065 -1.143) (end 6.2865 -1.143) (layer F.CrtYd) (width 0.1524))
  (fp_line (start -1.2065 13.8684) (end -1.2065 -1.143) (layer F.CrtYd) (width 0.1524))
  (fp_line (start 6.5405 14.1224) (end -1.4605 14.1224) (layer F.CrtYd) (width 0.1524))
  (fp_line (start 6.5405 -1.397) (end 6.5405 14.1224) (layer F.CrtYd) (width 0.1524))
  (fp_line (start -1.4605 -1.397) (end 6.5405 -1.397) (layer F.CrtYd) (width 0.1524))
  (fp_line (start -1.4605 14.1224) (end -1.4605 -1.397) (layer F.CrtYd) (width 0.1524))
  (fp_line (start -1.2065 -1.143) (end -1.2065 13.8684) (layer F.Fab) (width 0.1524))
  (fp_line (start 6.2865 -1.143) (end -1.2065 -1.143) (layer F.Fab) (width 0.1524))
  (fp_line (start 6.2865 13.8684) (end 6.2865 -1.143) (layer F.Fab) (width 0.1524))
  (fp_line (start -1.2065 13.8684) (end 6.2865 13.8684) (layer F.Fab) (width 0.1524))
  (fp_line (start -1.3335 -1.27) (end -1.3335 13.9954) (layer F.SilkS) (width 0.1524))
  (fp_line (start 6.4135 -1.27) (end -1.3335 -1.27) (layer F.SilkS) (width 0.1524))
  (fp_line (start 6.4135 13.9954) (end 6.4135 -1.27) (layer F.SilkS) (width 0.1524))
  (fp_line (start -1.3335 13.9954) (end 6.4135 13.9954) (layer F.SilkS) (width 0.1524))
  (fp_arc (start 2.54 -1.143) (end 2.8448 -1.143) (angle 180) (layer F.Fab) (width 0.1524))
  (fp_text user * (at 0 -1.693333) (layer F.Fab)
    (effects (font (size 1 1) (thickness 0.15)))
  )
  (fp_text user * (at 0 -1.693333) (layer F.Fab)
    (effects (font (size 1 1) (thickness 0.15)))
  )
  (fp_text user "Copyright 2016 Accelerated Designs. All rights reserved." (at 0 0) (layer Cmts.User)
    (effects (font (size 0.127 0.127) (thickness 0.002)))
  )
  (pad 12 thru_hole circle (at 5.08 0) (size 1.27 1.27) (drill 0.762) (layers *.Cu *.Mask))
  (pad 10 thru_hole circle (at 5.08 5.08) (size 1.27 1.27) (drill 0.762) (layers *.Cu *.Mask))
  (pad 9 thru_hole circle (at 5.08 7.62) (size 1.27 1.27) (drill 0.762) (layers *.Cu *.Mask))
  (pad 8 thru_hole circle (at 5.08 10.16) (size 1.27 1.27) (drill 0.762) (layers *.Cu *.Mask))
  (pad 5 thru_hole circle (at 0 10.16) (size 1.27 1.27) (drill 0.762) (layers *.Cu *.Mask))
  (pad 4 thru_hole circle (at 0 7.62) (size 1.27 1.27) (drill 0.762) (layers *.Cu *.Mask))
  (pad 3 thru_hole circle (at 0 5.08) (size 1.27 1.27) (drill 0.762) (layers *.Cu *.Mask))
  (pad 1 thru_hole circle (at 0 0) (size 1.27 1.27) (drill 0.762) (layers *.Cu *.Mask))
  (model ${KIPRJMOD}/project_libraries/_projectStepFiles/EC2NU_KEM.step
    (at (xyz 0 0 0))
    (scale (xyz 1 1 1))
    (rotate (xyz 0 0 0))
  )
)
