ISO-10303-21;
HEADER;
FILE_DESCRIPTION(('STEP AP214'),'1');
FILE_NAME('PCAP_6_3x5_4-ELECT_NCA','2020-08-16T22:58:10',(''),(''),'','','');
FILE_SCHEMA(('AUTOMOTIVE_DESIGN'));
ENDSEC;
DATA;
#1=SHAPE_DEFINITION_REPRESENTATION(#2,#3);
#2=PRODUCT_DEFINITION_SHAPE('',$,#4);
#3=SHAPE_REPRESENTATION('',(#62,#118,#1805,#2239,#19),#11);
#4=PRODUCT_DEFINITION('design','example product_definition',#6,#5);
#5=PRODUCT_DEFINITION_CONTEXT('3D Mechanical Parts',#10,'design');
#6=PRODUCT_DEFINITION_FORMATION('1.0','first version',#8);
#7=APPLICATION_PROTOCOL_DEFINITION('international standard','automotive_design',2003,#10);
#8=PRODUCT('product','part','',(#9));
#9=PRODUCT_CONTEXT('3D Mechanical Parts',#10,'mechanical');
#10=APPLICATION_CONTEXT('Core Data for Automotive Mechanical Design Process');
#11=(GEOMETRIC_REPRESENTATION_CONTEXT(3) GLOBAL_UNCERTAINTY_ASSIGNED_CONTEXT((#12)) GLOBAL_UNIT_ASSIGNED_CONTEXT((#13,#14,#18)) REPRESENTATION_CONTEXT('ID1','3D'));
#12=UNCERTAINTY_MEASURE_WITH_UNIT(LENGTH_MEASURE(1.E-005),#13,'DISTANCE_ACCURACY_VALUE','Maximum model space distance between geometric entities at asserted connectivities');
#13=(LENGTH_UNIT() NAMED_UNIT(*) SI_UNIT(.MILLI.,.METRE.));
#14=(CONVERSION_BASED_UNIT('degree',#16) NAMED_UNIT(#15) PLANE_ANGLE_UNIT());
#15=DIMENSIONAL_EXPONENTS(0.,0.,0.,0.,0.,0.,0.);
#16=MEASURE_WITH_UNIT(PLANE_ANGLE_MEASURE(0.01745329252),#17);
#17=(NAMED_UNIT(*) PLANE_ANGLE_UNIT() SI_UNIT($,.RADIAN.));
#18=(NAMED_UNIT(*) SI_UNIT($,.STERADIAN.) SOLID_ANGLE_UNIT());
#19=AXIS2_PLACEMENT_3D('',#20,#21,#22);
#20=CARTESIAN_POINT('',(0.0,0.0,0.0));
#21=DIRECTION('',(0.0,0.0,1.0));
#22=DIRECTION('',(1.0,0.0,0.0));
#25=MECHANICAL_DESIGN_GEOMETRIC_PRESENTATION_REPRESENTATION($,(#114,#115,#116,#120,#169,#218,#267,#316,#365,#414,#463,#512,#561,#610,#679,#768,#857,#946,#1035,#1204,#1266,#1338,#1410,#1472,#1525,#1578,#1631,#1684,#1714,#1744,#1774,#1807,#1876,#1945,#1994,#2043,#2092,#2141,#2190,#2241,#2310,#2379,#2428,#2477,#2526,#2575,#2624),#11);
#26=PRODUCT_CATEGORY_RELATIONSHIP('','',#27,#28);
#27=PRODUCT_CATEGORY('part','');
#28=PRODUCT_RELATED_PRODUCT_CATEGORY('','',(#8));
#34=PRESENTATION_STYLE_ASSIGNMENT((#35,#40));
#35=SURFACE_STYLE_USAGE(.BOTH.,#36);
#36=SURFACE_SIDE_STYLE('',(#37));
#37=SURFACE_STYLE_FILL_AREA(#38);
#38=FILL_AREA_STYLE('',(#39));
#39=FILL_AREA_STYLE_COLOUR('',#41);
#40=CURVE_STYLE('',#42,POSITIVE_LENGTH_MEASURE(0.1),#41);
#41=COLOUR_RGB('Aluminum',0.725,0.725,0.725);
#42=DRAUGHTING_PRE_DEFINED_CURVE_FONT('continuous');
#43=PRESENTATION_STYLE_ASSIGNMENT((#44,#49));
#44=SURFACE_STYLE_USAGE(.BOTH.,#45);
#45=SURFACE_SIDE_STYLE('',(#46));
#46=SURFACE_STYLE_FILL_AREA(#47);
#47=FILL_AREA_STYLE('',(#48));
#48=FILL_AREA_STYLE_COLOUR('',#50);
#49=CURVE_STYLE('',#51,POSITIVE_LENGTH_MEASURE(0.1),#50);
#50=COLOUR_RGB('Black',0.196,0.196,0.196);
#51=DRAUGHTING_PRE_DEFINED_CURVE_FONT('continuous');
#52=PRESENTATION_STYLE_ASSIGNMENT((#53,#58));
#53=SURFACE_STYLE_USAGE(.BOTH.,#54);
#54=SURFACE_SIDE_STYLE('',(#55));
#55=SURFACE_STYLE_FILL_AREA(#56);
#56=FILL_AREA_STYLE('',(#57));
#57=FILL_AREA_STYLE_COLOUR('',#59);
#58=CURVE_STYLE('',#60,POSITIVE_LENGTH_MEASURE(0.1),#59);
#59=COLOUR_RGB('HeatTab',0.588,0.588,0.588);
#60=DRAUGHTING_PRE_DEFINED_CURVE_FONT('continuous');
#62=MANIFOLD_SOLID_BREP($,#63);
#63=CLOSED_SHELL('',(#64,#65,#66));
#64=ADVANCED_FACE($,(#70,#69),#87,.T.);
#65=ADVANCED_FACE($,(#71),#67,.F.);
#66=ADVANCED_FACE($,(#72),#68,.T.);
#67=PLANE($,#92);
#68=PLANE($,#93);
#69=FACE_BOUND($,#74,.T.);
#70=FACE_OUTER_BOUND($,#73,.T.);
#71=FACE_OUTER_BOUND($,#75,.T.);
#72=FACE_OUTER_BOUND($,#76,.T.);
#73=EDGE_LOOP($,(#83));
#74=EDGE_LOOP($,(#84));
#75=EDGE_LOOP($,(#85));
#76=EDGE_LOOP($,(#86));
#77=CIRCLE($,#90,3.23088);
#78=CIRCLE($,#91,3.23088);
#79=VERTEX_POINT('',#108);
#80=VERTEX_POINT('',#110);
#81=EDGE_CURVE($,#79,#79,#77,.T.);
#82=EDGE_CURVE($,#80,#80,#78,.T.);
#83=ORIENTED_EDGE($,*,*,#81,.F.);
#84=ORIENTED_EDGE($,*,*,#82,.F.);
#85=ORIENTED_EDGE($,*,*,#82,.T.);
#86=ORIENTED_EDGE($,*,*,#81,.T.);
#87=CYLINDRICAL_SURFACE($,#89,3.23088);
#88=AXIS2_PLACEMENT_3D('placement',#106,#94,#95);
#89=AXIS2_PLACEMENT_3D($,#107,#96,#97);
#90=AXIS2_PLACEMENT_3D($,#109,#98,#99);
#91=AXIS2_PLACEMENT_3D($,#111,#100,#101);
#92=AXIS2_PLACEMENT_3D($,#112,#102,#103);
#93=AXIS2_PLACEMENT_3D($,#113,#104,#105);
#94=DIRECTION('axis',(0.,1.,0.));
#95=DIRECTION('refdir',(1.,0.,0.));
#96=DIRECTION('',(0.,0.,1.));
#97=DIRECTION('',(1.,0.,0.));
#98=DIRECTION('',(0.,0.,1.));
#99=DIRECTION('',(1.,0.,0.));
#100=DIRECTION('',(0.,0.,-1.));
#101=DIRECTION('',(1.,0.,0.));
#102=DIRECTION('',(0.,0.,1.));
#103=DIRECTION('',(0.,1.,0.));
#104=DIRECTION('',(0.,0.,1.));
#105=DIRECTION('',(0.,1.,0.));
#106=CARTESIAN_POINT('',(0.,0.,0.));
#107=CARTESIAN_POINT('',(0.0,0.0,0.605));
#108=CARTESIAN_POINT('',(-3.231,0.0,5.565));
#109=CARTESIAN_POINT('',(0.0,0.0,5.565));
#110=CARTESIAN_POINT('',(-3.231,0.0,0.605));
#111=CARTESIAN_POINT('',(0.0,0.0,0.605));
#112=CARTESIAN_POINT('',(0.0,0.0,0.605));
#113=CARTESIAN_POINT('',(0.0,0.0,5.565));
#114=STYLED_ITEM('color',(#34),#64);
#115=STYLED_ITEM('color',(#34),#65);
#116=STYLED_ITEM('color',(#34),#66);
#118=MANIFOLD_SOLID_BREP($,#119);
#119=CLOSED_SHELL('',(#121,#170,#219,#268,#317,#366,#415,#464,#513,#562,#611,#680,#769,#858,#947,#1036,#1205,#1267,#1339,#1411,#1473,#1526,#1579,#1632,#1685,#1715,#1745,#1775));
#120=STYLED_ITEM('',(#43),#121);
#121=ADVANCED_FACE('',(#127),#122,.T.);
#122=PLANE('',#123);
#123=AXIS2_PLACEMENT_3D('',#124,#125,#126);
#124=CARTESIAN_POINT('',(1.237,3.404,0.602));
#125=DIRECTION('',(-1.0,0.0,0.0));
#126=DIRECTION('',(0.,0.,1.));
#127=FACE_OUTER_BOUND('',#128,.T.);
#128=EDGE_LOOP('',(#129,#139,#149,#159));
#132=CARTESIAN_POINT('',(1.237,2.987,0.602));
#131=VERTEX_POINT('',#132);
#134=CARTESIAN_POINT('',(1.237,3.404,0.602));
#133=VERTEX_POINT('',#134);
#130=EDGE_CURVE('',#131,#133,#135,.T.);
#135=LINE('',#132,#137);
#137=VECTOR('',#138,0.416309441979654);
#138=DIRECTION('',(0.0,1.0,0.0));
#129=ORIENTED_EDGE('',*,*,#130,.F.);
#142=CARTESIAN_POINT('',(1.237,2.987,1.153));
#141=VERTEX_POINT('',#142);
#140=EDGE_CURVE('',#141,#131,#145,.T.);
#145=LINE('',#142,#147);
#147=VECTOR('',#148,0.55118);
#148=DIRECTION('',(0.0,0.0,-1.0));
#139=ORIENTED_EDGE('',*,*,#140,.F.);
#152=CARTESIAN_POINT('',(1.237,3.404,1.153));
#151=VERTEX_POINT('',#152);
#150=EDGE_CURVE('',#151,#141,#155,.T.);
#155=LINE('',#152,#157);
#157=VECTOR('',#158,0.416309441979654);
#158=DIRECTION('',(0.0,-1.0,0.0));
#149=ORIENTED_EDGE('',*,*,#150,.F.);
#160=EDGE_CURVE('',#133,#151,#165,.T.);
#165=LINE('',#134,#167);
#167=VECTOR('',#168,0.55118);
#168=DIRECTION('',(0.0,0.0,1.0));
#159=ORIENTED_EDGE('',*,*,#160,.F.);
#169=STYLED_ITEM('',(#43),#170);
#170=ADVANCED_FACE('',(#176),#171,.T.);
#171=PLANE('',#172);
#172=AXIS2_PLACEMENT_3D('',#173,#174,#175);
#173=CARTESIAN_POINT('',(-1.237,2.987,0.602));
#174=DIRECTION('',(1.0,0.0,0.0));
#175=DIRECTION('',(0.,0.,1.));
#176=FACE_OUTER_BOUND('',#177,.T.);
#177=EDGE_LOOP('',(#178,#188,#198,#208));
#181=CARTESIAN_POINT('',(-1.237,3.404,0.602));
#180=VERTEX_POINT('',#181);
#183=CARTESIAN_POINT('',(-1.237,2.987,0.602));
#182=VERTEX_POINT('',#183);
#179=EDGE_CURVE('',#180,#182,#184,.T.);
#184=LINE('',#181,#186);
#186=VECTOR('',#187,0.416309441979654);
#187=DIRECTION('',(0.0,-1.0,0.0));
#178=ORIENTED_EDGE('',*,*,#179,.F.);
#191=CARTESIAN_POINT('',(-1.237,3.404,1.153));
#190=VERTEX_POINT('',#191);
#189=EDGE_CURVE('',#190,#180,#194,.T.);
#194=LINE('',#191,#196);
#196=VECTOR('',#197,0.55118);
#197=DIRECTION('',(0.0,0.0,-1.0));
#188=ORIENTED_EDGE('',*,*,#189,.F.);
#201=CARTESIAN_POINT('',(-1.237,2.987,1.153));
#200=VERTEX_POINT('',#201);
#199=EDGE_CURVE('',#200,#190,#204,.T.);
#204=LINE('',#201,#206);
#206=VECTOR('',#207,0.416309441979654);
#207=DIRECTION('',(0.0,1.0,0.0));
#198=ORIENTED_EDGE('',*,*,#199,.F.);
#209=EDGE_CURVE('',#182,#200,#214,.T.);
#214=LINE('',#183,#216);
#216=VECTOR('',#217,0.55118);
#217=DIRECTION('',(0.0,0.0,1.0));
#208=ORIENTED_EDGE('',*,*,#209,.F.);
#218=STYLED_ITEM('',(#43),#219);
#219=ADVANCED_FACE('',(#225),#220,.T.);
#220=PLANE('',#221);
#221=AXIS2_PLACEMENT_3D('',#222,#223,#224);
#222=CARTESIAN_POINT('',(-3.404,1.237,0.602));
#223=DIRECTION('',(0.0,-1.0,0.0));
#224=DIRECTION('',(0.,0.,1.));
#225=FACE_OUTER_BOUND('',#226,.T.);
#226=EDGE_LOOP('',(#227,#237,#247,#257));
#230=CARTESIAN_POINT('',(-2.987,1.237,0.602));
#229=VERTEX_POINT('',#230);
#232=CARTESIAN_POINT('',(-3.404,1.237,0.602));
#231=VERTEX_POINT('',#232);
#228=EDGE_CURVE('',#229,#231,#233,.T.);
#233=LINE('',#230,#235);
#235=VECTOR('',#236,0.416309441979654);
#236=DIRECTION('',(-1.0,0.0,0.0));
#227=ORIENTED_EDGE('',*,*,#228,.F.);
#240=CARTESIAN_POINT('',(-2.987,1.237,1.153));
#239=VERTEX_POINT('',#240);
#238=EDGE_CURVE('',#239,#229,#243,.T.);
#243=LINE('',#240,#245);
#245=VECTOR('',#246,0.55118);
#246=DIRECTION('',(0.0,0.0,-1.0));
#237=ORIENTED_EDGE('',*,*,#238,.F.);
#250=CARTESIAN_POINT('',(-3.404,1.237,1.153));
#249=VERTEX_POINT('',#250);
#248=EDGE_CURVE('',#249,#239,#253,.T.);
#253=LINE('',#250,#255);
#255=VECTOR('',#256,0.416309441979654);
#256=DIRECTION('',(1.0,0.0,0.0));
#247=ORIENTED_EDGE('',*,*,#248,.F.);
#258=EDGE_CURVE('',#231,#249,#263,.T.);
#263=LINE('',#232,#265);
#265=VECTOR('',#266,0.55118);
#266=DIRECTION('',(0.0,0.0,1.0));
#257=ORIENTED_EDGE('',*,*,#258,.F.);
#267=STYLED_ITEM('',(#43),#268);
#268=ADVANCED_FACE('',(#274),#269,.T.);
#269=PLANE('',#270);
#270=AXIS2_PLACEMENT_3D('',#271,#272,#273);
#271=CARTESIAN_POINT('',(-2.987,-1.237,0.602));
#272=DIRECTION('',(0.0,1.0,0.0));
#273=DIRECTION('',(0.,0.,1.));
#274=FACE_OUTER_BOUND('',#275,.T.);
#275=EDGE_LOOP('',(#276,#286,#296,#306));
#279=CARTESIAN_POINT('',(-3.404,-1.237,0.602));
#278=VERTEX_POINT('',#279);
#281=CARTESIAN_POINT('',(-2.987,-1.237,0.602));
#280=VERTEX_POINT('',#281);
#277=EDGE_CURVE('',#278,#280,#282,.T.);
#282=LINE('',#279,#284);
#284=VECTOR('',#285,0.416309441979654);
#285=DIRECTION('',(1.0,0.0,0.0));
#276=ORIENTED_EDGE('',*,*,#277,.F.);
#289=CARTESIAN_POINT('',(-3.404,-1.237,1.153));
#288=VERTEX_POINT('',#289);
#287=EDGE_CURVE('',#288,#278,#292,.T.);
#292=LINE('',#289,#294);
#294=VECTOR('',#295,0.55118);
#295=DIRECTION('',(0.0,0.0,-1.0));
#286=ORIENTED_EDGE('',*,*,#287,.F.);
#299=CARTESIAN_POINT('',(-2.987,-1.237,1.153));
#298=VERTEX_POINT('',#299);
#297=EDGE_CURVE('',#298,#288,#302,.T.);
#302=LINE('',#299,#304);
#304=VECTOR('',#305,0.416309441979654);
#305=DIRECTION('',(-1.0,0.0,0.0));
#296=ORIENTED_EDGE('',*,*,#297,.F.);
#307=EDGE_CURVE('',#280,#298,#312,.T.);
#312=LINE('',#281,#314);
#314=VECTOR('',#315,0.55118);
#315=DIRECTION('',(0.0,0.0,1.0));
#306=ORIENTED_EDGE('',*,*,#307,.F.);
#316=STYLED_ITEM('',(#43),#317);
#317=ADVANCED_FACE('',(#323),#318,.T.);
#318=PLANE('',#319);
#319=AXIS2_PLACEMENT_3D('',#320,#321,#322);
#320=CARTESIAN_POINT('',(-1.237,-3.404,0.602));
#321=DIRECTION('',(1.0,0.0,0.0));
#322=DIRECTION('',(0.,0.,1.));
#323=FACE_OUTER_BOUND('',#324,.T.);
#324=EDGE_LOOP('',(#325,#335,#345,#355));
#328=CARTESIAN_POINT('',(-1.237,-2.987,0.602));
#327=VERTEX_POINT('',#328);
#330=CARTESIAN_POINT('',(-1.237,-3.404,0.602));
#329=VERTEX_POINT('',#330);
#326=EDGE_CURVE('',#327,#329,#331,.T.);
#331=LINE('',#328,#333);
#333=VECTOR('',#334,0.416309441979654);
#334=DIRECTION('',(0.0,-1.0,0.0));
#325=ORIENTED_EDGE('',*,*,#326,.F.);
#338=CARTESIAN_POINT('',(-1.237,-2.987,1.153));
#337=VERTEX_POINT('',#338);
#336=EDGE_CURVE('',#337,#327,#341,.T.);
#341=LINE('',#338,#343);
#343=VECTOR('',#344,0.55118);
#344=DIRECTION('',(0.0,0.0,-1.0));
#335=ORIENTED_EDGE('',*,*,#336,.F.);
#348=CARTESIAN_POINT('',(-1.237,-3.404,1.153));
#347=VERTEX_POINT('',#348);
#346=EDGE_CURVE('',#347,#337,#351,.T.);
#351=LINE('',#348,#353);
#353=VECTOR('',#354,0.416309441979654);
#354=DIRECTION('',(0.0,1.0,0.0));
#345=ORIENTED_EDGE('',*,*,#346,.F.);
#356=EDGE_CURVE('',#329,#347,#361,.T.);
#361=LINE('',#330,#363);
#363=VECTOR('',#364,0.55118);
#364=DIRECTION('',(0.0,0.0,1.0));
#355=ORIENTED_EDGE('',*,*,#356,.F.);
#365=STYLED_ITEM('',(#43),#366);
#366=ADVANCED_FACE('',(#372),#367,.T.);
#367=PLANE('',#368);
#368=AXIS2_PLACEMENT_3D('',#369,#370,#371);
#369=CARTESIAN_POINT('',(1.237,-2.987,0.602));
#370=DIRECTION('',(-1.0,0.0,0.0));
#371=DIRECTION('',(0.,0.,1.));
#372=FACE_OUTER_BOUND('',#373,.T.);
#373=EDGE_LOOP('',(#374,#384,#394,#404));
#377=CARTESIAN_POINT('',(1.237,-3.404,0.602));
#376=VERTEX_POINT('',#377);
#379=CARTESIAN_POINT('',(1.237,-2.987,0.602));
#378=VERTEX_POINT('',#379);
#375=EDGE_CURVE('',#376,#378,#380,.T.);
#380=LINE('',#377,#382);
#382=VECTOR('',#383,0.416309441979654);
#383=DIRECTION('',(0.0,1.0,0.0));
#374=ORIENTED_EDGE('',*,*,#375,.F.);
#387=CARTESIAN_POINT('',(1.237,-3.404,1.153));
#386=VERTEX_POINT('',#387);
#385=EDGE_CURVE('',#386,#376,#390,.T.);
#390=LINE('',#387,#392);
#392=VECTOR('',#393,0.55118);
#393=DIRECTION('',(0.0,0.0,-1.0));
#384=ORIENTED_EDGE('',*,*,#385,.F.);
#397=CARTESIAN_POINT('',(1.237,-2.987,1.153));
#396=VERTEX_POINT('',#397);
#395=EDGE_CURVE('',#396,#386,#400,.T.);
#400=LINE('',#397,#402);
#402=VECTOR('',#403,0.416309441979654);
#403=DIRECTION('',(0.0,-1.0,0.0));
#394=ORIENTED_EDGE('',*,*,#395,.F.);
#405=EDGE_CURVE('',#378,#396,#410,.T.);
#410=LINE('',#379,#412);
#412=VECTOR('',#413,0.55118);
#413=DIRECTION('',(0.0,0.0,1.0));
#404=ORIENTED_EDGE('',*,*,#405,.F.);
#414=STYLED_ITEM('',(#43),#415);
#415=ADVANCED_FACE('',(#421),#416,.T.);
#416=PLANE('',#417);
#417=AXIS2_PLACEMENT_3D('',#418,#419,#420);
#418=CARTESIAN_POINT('',(3.404,-1.237,0.602));
#419=DIRECTION('',(0.0,1.0,0.0));
#420=DIRECTION('',(0.,0.,1.));
#421=FACE_OUTER_BOUND('',#422,.T.);
#422=EDGE_LOOP('',(#423,#433,#443,#453));
#426=CARTESIAN_POINT('',(2.987,-1.237,0.602));
#425=VERTEX_POINT('',#426);
#428=CARTESIAN_POINT('',(3.404,-1.237,0.602));
#427=VERTEX_POINT('',#428);
#424=EDGE_CURVE('',#425,#427,#429,.T.);
#429=LINE('',#426,#431);
#431=VECTOR('',#432,0.416309441979654);
#432=DIRECTION('',(1.0,0.0,0.0));
#423=ORIENTED_EDGE('',*,*,#424,.F.);
#436=CARTESIAN_POINT('',(2.987,-1.237,1.153));
#435=VERTEX_POINT('',#436);
#434=EDGE_CURVE('',#435,#425,#439,.T.);
#439=LINE('',#436,#441);
#441=VECTOR('',#442,0.55118);
#442=DIRECTION('',(0.0,0.0,-1.0));
#433=ORIENTED_EDGE('',*,*,#434,.F.);
#446=CARTESIAN_POINT('',(3.404,-1.237,1.153));
#445=VERTEX_POINT('',#446);
#444=EDGE_CURVE('',#445,#435,#449,.T.);
#449=LINE('',#446,#451);
#451=VECTOR('',#452,0.416309441979654);
#452=DIRECTION('',(-1.0,0.0,0.0));
#443=ORIENTED_EDGE('',*,*,#444,.F.);
#454=EDGE_CURVE('',#427,#445,#459,.T.);
#459=LINE('',#428,#461);
#461=VECTOR('',#462,0.55118);
#462=DIRECTION('',(0.0,0.0,1.0));
#453=ORIENTED_EDGE('',*,*,#454,.F.);
#463=STYLED_ITEM('',(#43),#464);
#464=ADVANCED_FACE('',(#470),#465,.T.);
#465=PLANE('',#466);
#466=AXIS2_PLACEMENT_3D('',#467,#468,#469);
#467=CARTESIAN_POINT('',(2.987,1.237,0.602));
#468=DIRECTION('',(0.0,-1.0,0.0));
#469=DIRECTION('',(0.,0.,1.));
#470=FACE_OUTER_BOUND('',#471,.T.);
#471=EDGE_LOOP('',(#472,#482,#492,#502));
#475=CARTESIAN_POINT('',(3.404,1.237,0.602));
#474=VERTEX_POINT('',#475);
#477=CARTESIAN_POINT('',(2.987,1.237,0.602));
#476=VERTEX_POINT('',#477);
#473=EDGE_CURVE('',#474,#476,#478,.T.);
#478=LINE('',#475,#480);
#480=VECTOR('',#481,0.416309441979654);
#481=DIRECTION('',(-1.0,0.0,0.0));
#472=ORIENTED_EDGE('',*,*,#473,.F.);
#485=CARTESIAN_POINT('',(3.404,1.237,1.153));
#484=VERTEX_POINT('',#485);
#483=EDGE_CURVE('',#484,#474,#488,.T.);
#488=LINE('',#485,#490);
#490=VECTOR('',#491,0.55118);
#491=DIRECTION('',(0.0,0.0,-1.0));
#482=ORIENTED_EDGE('',*,*,#483,.F.);
#495=CARTESIAN_POINT('',(2.987,1.237,1.153));
#494=VERTEX_POINT('',#495);
#493=EDGE_CURVE('',#494,#484,#498,.T.);
#498=LINE('',#495,#500);
#500=VECTOR('',#501,0.416309441979654);
#501=DIRECTION('',(1.0,0.0,0.0));
#492=ORIENTED_EDGE('',*,*,#493,.F.);
#503=EDGE_CURVE('',#476,#494,#508,.T.);
#508=LINE('',#477,#510);
#510=VECTOR('',#511,0.55118);
#511=DIRECTION('',(0.0,0.0,1.0));
#502=ORIENTED_EDGE('',*,*,#503,.F.);
#512=STYLED_ITEM('',(#43),#513);
#513=ADVANCED_FACE('',(#519),#514,.T.);
#514=PLANE('',#515);
#515=AXIS2_PLACEMENT_3D('',#516,#517,#518);
#516=CARTESIAN_POINT('',(-2.32,3.404,0.051));
#517=DIRECTION('',(-0.707,0.707,0.0));
#518=DIRECTION('',(0.,0.,1.));
#519=FACE_OUTER_BOUND('',#520,.T.);
#520=EDGE_LOOP('',(#521,#531,#541,#551));
#524=CARTESIAN_POINT('',(-3.404,2.32,0.051));
#523=VERTEX_POINT('',#524);
#526=CARTESIAN_POINT('',(-2.32,3.404,0.051));
#525=VERTEX_POINT('',#526);
#522=EDGE_CURVE('',#523,#525,#527,.T.);
#527=LINE('',#524,#529);
#529=VECTOR('',#530,1.53175149339232);
#530=DIRECTION('',(0.707,0.707,0.0));
#521=ORIENTED_EDGE('',*,*,#522,.F.);
#534=CARTESIAN_POINT('',(-3.404,2.32,1.153));
#533=VERTEX_POINT('',#534);
#532=EDGE_CURVE('',#533,#523,#537,.T.);
#537=LINE('',#534,#539);
#539=VECTOR('',#540,1.10236);
#540=DIRECTION('',(0.0,0.0,-1.0));
#531=ORIENTED_EDGE('',*,*,#532,.F.);
#544=CARTESIAN_POINT('',(-2.32,3.404,1.153));
#543=VERTEX_POINT('',#544);
#542=EDGE_CURVE('',#543,#533,#547,.T.);
#547=LINE('',#544,#549);
#549=VECTOR('',#550,1.53175149339232);
#550=DIRECTION('',(-0.707,-0.707,0.0));
#541=ORIENTED_EDGE('',*,*,#542,.F.);
#552=EDGE_CURVE('',#525,#543,#557,.T.);
#557=LINE('',#526,#559);
#559=VECTOR('',#560,1.10236);
#560=DIRECTION('',(0.0,0.0,1.0));
#551=ORIENTED_EDGE('',*,*,#552,.F.);
#561=STYLED_ITEM('',(#43),#562);
#562=ADVANCED_FACE('',(#568),#563,.T.);
#563=PLANE('',#564);
#564=AXIS2_PLACEMENT_3D('',#565,#566,#567);
#565=CARTESIAN_POINT('',(-3.404,-2.32,0.051));
#566=DIRECTION('',(-0.707,-0.707,0.0));
#567=DIRECTION('',(0.,0.,1.));
#568=FACE_OUTER_BOUND('',#569,.T.);
#569=EDGE_LOOP('',(#570,#580,#590,#600));
#573=CARTESIAN_POINT('',(-2.32,-3.404,0.051));
#572=VERTEX_POINT('',#573);
#575=CARTESIAN_POINT('',(-3.404,-2.32,0.051));
#574=VERTEX_POINT('',#575);
#571=EDGE_CURVE('',#572,#574,#576,.T.);
#576=LINE('',#573,#578);
#578=VECTOR('',#579,1.53175149339232);
#579=DIRECTION('',(-0.707,0.707,0.0));
#570=ORIENTED_EDGE('',*,*,#571,.F.);
#583=CARTESIAN_POINT('',(-2.32,-3.404,1.153));
#582=VERTEX_POINT('',#583);
#581=EDGE_CURVE('',#582,#572,#586,.T.);
#586=LINE('',#583,#588);
#588=VECTOR('',#589,1.10236);
#589=DIRECTION('',(0.0,0.0,-1.0));
#580=ORIENTED_EDGE('',*,*,#581,.F.);
#593=CARTESIAN_POINT('',(-3.404,-2.32,1.153));
#592=VERTEX_POINT('',#593);
#591=EDGE_CURVE('',#592,#582,#596,.T.);
#596=LINE('',#593,#598);
#598=VECTOR('',#599,1.53175149339232);
#599=DIRECTION('',(0.707,-0.707,0.0));
#590=ORIENTED_EDGE('',*,*,#591,.F.);
#601=EDGE_CURVE('',#574,#592,#606,.T.);
#606=LINE('',#575,#608);
#608=VECTOR('',#609,1.10236);
#609=DIRECTION('',(0.0,0.0,1.0));
#600=ORIENTED_EDGE('',*,*,#601,.F.);
#610=STYLED_ITEM('',(#43),#611);
#611=ADVANCED_FACE('',(#617),#612,.T.);
#612=PLANE('',#613);
#613=AXIS2_PLACEMENT_3D('',#614,#615,#616);
#614=CARTESIAN_POINT('',(-2.32,3.404,0.051));
#615=DIRECTION('',(0.0,0.0,-1.0));
#616=DIRECTION('',(0.,1.,0.));
#617=FACE_OUTER_BOUND('',#618,.T.);
#618=EDGE_LOOP('',(#619,#629,#639,#649,#659,#669));
#622=CARTESIAN_POINT('',(3.404,3.404,0.051));
#621=VERTEX_POINT('',#622);
#620=EDGE_CURVE('',#621,#525,#625,.T.);
#625=LINE('',#622,#627);
#627=VECTOR('',#628,5.72408813192967);
#628=DIRECTION('',(-1.0,0.0,0.0));
#619=ORIENTED_EDGE('',*,*,#620,.F.);
#632=CARTESIAN_POINT('',(3.404,-3.404,0.051));
#631=VERTEX_POINT('',#632);
#630=EDGE_CURVE('',#631,#621,#635,.T.);
#635=LINE('',#632,#637);
#637=VECTOR('',#638,6.8072);
#638=DIRECTION('',(0.0,1.0,0.0));
#629=ORIENTED_EDGE('',*,*,#630,.F.);
#640=EDGE_CURVE('',#572,#631,#645,.T.);
#645=LINE('',#573,#647);
#647=VECTOR('',#648,5.72408813192967);
#648=DIRECTION('',(1.0,0.0,0.0));
#639=ORIENTED_EDGE('',*,*,#640,.F.);
#649=ORIENTED_EDGE('',*,*,#571,.T.);
#660=EDGE_CURVE('',#523,#574,#665,.T.);
#665=LINE('',#524,#667);
#667=VECTOR('',#668,4.64097626385934);
#668=DIRECTION('',(0.0,-1.0,0.0));
#659=ORIENTED_EDGE('',*,*,#660,.F.);
#669=ORIENTED_EDGE('',*,*,#522,.T.);
#679=STYLED_ITEM('',(#43),#680);
#680=ADVANCED_FACE('',(#686),#681,.T.);
#681=PLANE('',#682);
#682=AXIS2_PLACEMENT_3D('',#683,#684,#685);
#683=CARTESIAN_POINT('',(3.404,-3.404,0.051));
#684=DIRECTION('',(1.0,0.0,0.0));
#685=DIRECTION('',(0.,0.,1.));
#686=FACE_OUTER_BOUND('',#687,.T.);
#687=EDGE_LOOP('',(#688,#698,#708,#718,#728,#738,#748,#758));
#688=ORIENTED_EDGE('',*,*,#630,.T.);
#701=CARTESIAN_POINT('',(3.404,3.404,1.153));
#700=VERTEX_POINT('',#701);
#699=EDGE_CURVE('',#700,#621,#704,.T.);
#704=LINE('',#701,#706);
#706=VECTOR('',#707,1.10236);
#707=DIRECTION('',(0.0,0.0,-1.0));
#698=ORIENTED_EDGE('',*,*,#699,.F.);
#709=EDGE_CURVE('',#484,#700,#714,.T.);
#714=LINE('',#485,#716);
#716=VECTOR('',#717,2.16622373614066);
#717=DIRECTION('',(0.0,1.0,0.0));
#708=ORIENTED_EDGE('',*,*,#709,.F.);
#718=ORIENTED_EDGE('',*,*,#483,.T.);
#729=EDGE_CURVE('',#427,#474,#734,.T.);
#734=LINE('',#428,#736);
#736=VECTOR('',#737,2.47475252771867);
#737=DIRECTION('',(0.0,1.0,0.0));
#728=ORIENTED_EDGE('',*,*,#729,.F.);
#738=ORIENTED_EDGE('',*,*,#454,.T.);
#751=CARTESIAN_POINT('',(3.404,-3.404,1.153));
#750=VERTEX_POINT('',#751);
#749=EDGE_CURVE('',#750,#445,#754,.T.);
#754=LINE('',#751,#756);
#756=VECTOR('',#757,2.16622373614066);
#757=DIRECTION('',(0.0,1.0,0.0));
#748=ORIENTED_EDGE('',*,*,#749,.F.);
#759=EDGE_CURVE('',#631,#750,#764,.T.);
#764=LINE('',#632,#766);
#766=VECTOR('',#767,1.10236);
#767=DIRECTION('',(0.0,0.0,1.0));
#758=ORIENTED_EDGE('',*,*,#759,.F.);
#768=STYLED_ITEM('',(#43),#769);
#769=ADVANCED_FACE('',(#775),#770,.T.);
#770=PLANE('',#771);
#771=AXIS2_PLACEMENT_3D('',#772,#773,#774);
#772=CARTESIAN_POINT('',(3.404,3.404,0.051));
#773=DIRECTION('',(0.0,1.0,0.0));
#774=DIRECTION('',(0.,0.,1.));
#775=FACE_OUTER_BOUND('',#776,.T.);
#776=EDGE_LOOP('',(#777,#787,#797,#807,#817,#827,#837,#847));
#777=ORIENTED_EDGE('',*,*,#620,.T.);
#787=ORIENTED_EDGE('',*,*,#552,.T.);
#798=EDGE_CURVE('',#190,#543,#803,.T.);
#803=LINE('',#191,#805);
#805=VECTOR('',#806,1.08311186807033);
#806=DIRECTION('',(-1.0,0.0,0.0));
#797=ORIENTED_EDGE('',*,*,#798,.F.);
#807=ORIENTED_EDGE('',*,*,#189,.T.);
#818=EDGE_CURVE('',#133,#180,#823,.T.);
#823=LINE('',#134,#825);
#825=VECTOR('',#826,2.47475252771867);
#826=DIRECTION('',(-1.0,0.0,0.0));
#817=ORIENTED_EDGE('',*,*,#818,.F.);
#827=ORIENTED_EDGE('',*,*,#160,.T.);
#838=EDGE_CURVE('',#700,#151,#843,.T.);
#843=LINE('',#701,#845);
#845=VECTOR('',#846,2.16622373614066);
#846=DIRECTION('',(-1.0,0.0,0.0));
#837=ORIENTED_EDGE('',*,*,#838,.F.);
#847=ORIENTED_EDGE('',*,*,#699,.T.);
#857=STYLED_ITEM('',(#43),#858);
#858=ADVANCED_FACE('',(#864),#859,.T.);
#859=PLANE('',#860);
#860=AXIS2_PLACEMENT_3D('',#861,#862,#863);
#861=CARTESIAN_POINT('',(-3.404,2.32,0.051));
#862=DIRECTION('',(-1.0,0.0,0.0));
#863=DIRECTION('',(0.,0.,1.));
#864=FACE_OUTER_BOUND('',#865,.T.);
#865=EDGE_LOOP('',(#866,#876,#886,#896,#906,#916,#926,#936));
#866=ORIENTED_EDGE('',*,*,#660,.T.);
#876=ORIENTED_EDGE('',*,*,#601,.T.);
#887=EDGE_CURVE('',#288,#592,#892,.T.);
#892=LINE('',#289,#894);
#894=VECTOR('',#895,1.08311186807033);
#895=DIRECTION('',(0.0,-1.0,0.0));
#886=ORIENTED_EDGE('',*,*,#887,.F.);
#896=ORIENTED_EDGE('',*,*,#287,.T.);
#907=EDGE_CURVE('',#231,#278,#912,.T.);
#912=LINE('',#232,#914);
#914=VECTOR('',#915,2.47475252771867);
#915=DIRECTION('',(0.0,-1.0,0.0));
#906=ORIENTED_EDGE('',*,*,#907,.F.);
#916=ORIENTED_EDGE('',*,*,#258,.T.);
#927=EDGE_CURVE('',#533,#249,#932,.T.);
#932=LINE('',#534,#934);
#934=VECTOR('',#935,1.08311186807033);
#935=DIRECTION('',(0.0,-1.0,0.0));
#926=ORIENTED_EDGE('',*,*,#927,.F.);
#936=ORIENTED_EDGE('',*,*,#532,.T.);
#946=STYLED_ITEM('',(#43),#947);
#947=ADVANCED_FACE('',(#953),#948,.T.);
#948=PLANE('',#949);
#949=AXIS2_PLACEMENT_3D('',#950,#951,#952);
#950=CARTESIAN_POINT('',(-2.32,-3.404,0.051));
#951=DIRECTION('',(0.0,-1.0,0.0));
#952=DIRECTION('',(0.,0.,1.));
#953=FACE_OUTER_BOUND('',#954,.T.);
#954=EDGE_LOOP('',(#955,#965,#975,#985,#995,#1005,#1015,#1025));
#955=ORIENTED_EDGE('',*,*,#640,.T.);
#965=ORIENTED_EDGE('',*,*,#759,.T.);
#976=EDGE_CURVE('',#386,#750,#981,.T.);
#981=LINE('',#387,#983);
#983=VECTOR('',#984,2.16622373614066);
#984=DIRECTION('',(1.0,0.0,0.0));
#975=ORIENTED_EDGE('',*,*,#976,.F.);
#985=ORIENTED_EDGE('',*,*,#385,.T.);
#996=EDGE_CURVE('',#329,#376,#1001,.T.);
#1001=LINE('',#330,#1003);
#1003=VECTOR('',#1004,2.47475252771867);
#1004=DIRECTION('',(1.0,0.0,0.0));
#995=ORIENTED_EDGE('',*,*,#996,.F.);
#1005=ORIENTED_EDGE('',*,*,#356,.T.);
#1016=EDGE_CURVE('',#582,#347,#1021,.T.);
#1021=LINE('',#583,#1023);
#1023=VECTOR('',#1024,1.08311186807033);
#1024=DIRECTION('',(1.0,0.0,0.0));
#1015=ORIENTED_EDGE('',*,*,#1016,.F.);
#1025=ORIENTED_EDGE('',*,*,#581,.T.);
#1035=STYLED_ITEM('',(#43),#1036);
#1036=ADVANCED_FACE('',(#1042),#1037,.T.);
#1037=PLANE('',#1038);
#1038=AXIS2_PLACEMENT_3D('',#1039,#1040,#1041);
#1039=CARTESIAN_POINT('',(-1.237,-3.404,0.602));
#1040=DIRECTION('',(0.0,0.0,1.0));
#1041=DIRECTION('',(0.,1.,0.));
#1042=FACE_OUTER_BOUND('',#1043,.T.);
#1043=EDGE_LOOP('',(#1044,#1054,#1064,#1074,#1084,#1094,#1104,#1114,#1124,#1134,#1144,#1154,#1164,#1174,#1184,#1194));
#1044=ORIENTED_EDGE('',*,*,#996,.T.);
#1054=ORIENTED_EDGE('',*,*,#375,.T.);
#1065=EDGE_CURVE('',#425,#378,#1070,.T.);
#1070=LINE('',#426,#1072);
#1072=VECTOR('',#1073,2.47475252779304);
#1073=DIRECTION('',(-0.707,-0.707,0.0));
#1064=ORIENTED_EDGE('',*,*,#1065,.F.);
#1074=ORIENTED_EDGE('',*,*,#424,.T.);
#1084=ORIENTED_EDGE('',*,*,#729,.T.);
#1094=ORIENTED_EDGE('',*,*,#473,.T.);
#1105=EDGE_CURVE('',#131,#476,#1110,.T.);
#1110=LINE('',#132,#1112);
#1112=VECTOR('',#1113,2.47475252779304);
#1113=DIRECTION('',(0.707,-0.707,0.0));
#1104=ORIENTED_EDGE('',*,*,#1105,.F.);
#1114=ORIENTED_EDGE('',*,*,#130,.T.);
#1124=ORIENTED_EDGE('',*,*,#818,.T.);
#1134=ORIENTED_EDGE('',*,*,#179,.T.);
#1145=EDGE_CURVE('',#229,#182,#1150,.T.);
#1150=LINE('',#230,#1152);
#1152=VECTOR('',#1153,2.47475252779304);
#1153=DIRECTION('',(0.707,0.707,0.0));
#1144=ORIENTED_EDGE('',*,*,#1145,.F.);
#1154=ORIENTED_EDGE('',*,*,#228,.T.);
#1164=ORIENTED_EDGE('',*,*,#907,.T.);
#1174=ORIENTED_EDGE('',*,*,#277,.T.);
#1185=EDGE_CURVE('',#327,#280,#1190,.T.);
#1190=LINE('',#328,#1192);
#1192=VECTOR('',#1193,2.47475252779304);
#1193=DIRECTION('',(-0.707,0.707,0.0));
#1184=ORIENTED_EDGE('',*,*,#1185,.F.);
#1194=ORIENTED_EDGE('',*,*,#326,.T.);
#1204=STYLED_ITEM('color',(#43),#1205);
#1205=ADVANCED_FACE($,(#1211),#1206,.T.);
#1206=PLANE($,#1207);
#1207=AXIS2_PLACEMENT_3D($,#1208,#1209,#1210);
#1208=CARTESIAN_POINT('',(2.987,1.237,1.153));
#1209=DIRECTION('',(0.,0.,1.));
#1210=DIRECTION('',(1.,0.,0.));
#1211=FACE_OUTER_BOUND($,#1212,.T.);
#1212=EDGE_LOOP($,(#1215, #1225, #1235, #1245, #1255));
#1215=ORIENTED_EDGE('',*,*,#493,.T.);
#1225=ORIENTED_EDGE('',*,*,#709,.T.);
#1235=ORIENTED_EDGE('',*,*,#838,.T.);
#1245=ORIENTED_EDGE('',*,*,#150,.T.);
#1256=EDGE_CURVE($,#494,#141,#1261,.T.);
#1261=CIRCLE($,#1262,3.23342);
#1263=CARTESIAN_POINT('',(0.0,0.0,1.153));
#1262=AXIS2_PLACEMENT_3D($,#1263,#1264,#1265);
#1264=DIRECTION('',(0.0,0.0,1.0));
#1265=DIRECTION('',(-0.707,0.707,0.0));
#1255=ORIENTED_EDGE('',*,*,#1256,.F.);
#1266=STYLED_ITEM('color',(#43),#1267);
#1267=ADVANCED_FACE($,(#1273),#1268,.T.);
#1268=PLANE($,#1269);
#1269=AXIS2_PLACEMENT_3D($,#1270,#1271,#1272);
#1270=CARTESIAN_POINT('',(-2.987,1.237,1.153));
#1271=DIRECTION('',(0.,0.,1.));
#1272=DIRECTION('',(1.,0.,0.));
#1273=FACE_OUTER_BOUND($,#1274,.T.);
#1274=EDGE_LOOP($,(#1277, #1287, #1297, #1307, #1317, #1327));
#1277=ORIENTED_EDGE('',*,*,#199,.T.);
#1287=ORIENTED_EDGE('',*,*,#798,.T.);
#1297=ORIENTED_EDGE('',*,*,#542,.T.);
#1307=ORIENTED_EDGE('',*,*,#927,.T.);
#1317=ORIENTED_EDGE('',*,*,#248,.T.);
#1328=EDGE_CURVE($,#200,#239,#1333,.T.);
#1333=CIRCLE($,#1334,3.23342);
#1334=AXIS2_PLACEMENT_3D($,#1263,#1336,#1337);
#1336=DIRECTION('',(0.0,0.0,1.0));
#1337=DIRECTION('',(-0.707,-0.707,0.0));
#1327=ORIENTED_EDGE('',*,*,#1328,.F.);
#1338=STYLED_ITEM('color',(#43),#1339);
#1339=ADVANCED_FACE($,(#1345),#1340,.T.);
#1340=PLANE($,#1341);
#1341=AXIS2_PLACEMENT_3D($,#1342,#1343,#1344);
#1342=CARTESIAN_POINT('',(-1.237,-2.987,1.153));
#1343=DIRECTION('',(0.,0.,1.));
#1344=DIRECTION('',(1.,0.,0.));
#1345=FACE_OUTER_BOUND($,#1346,.T.);
#1346=EDGE_LOOP($,(#1349, #1359, #1369, #1379, #1389, #1399));
#1349=ORIENTED_EDGE('',*,*,#297,.T.);
#1359=ORIENTED_EDGE('',*,*,#887,.T.);
#1369=ORIENTED_EDGE('',*,*,#591,.T.);
#1379=ORIENTED_EDGE('',*,*,#1016,.T.);
#1389=ORIENTED_EDGE('',*,*,#346,.T.);
#1400=EDGE_CURVE($,#298,#337,#1405,.T.);
#1405=CIRCLE($,#1406,3.23342);
#1406=AXIS2_PLACEMENT_3D($,#1263,#1408,#1409);
#1408=DIRECTION('',(0.0,0.0,1.0));
#1409=DIRECTION('',(0.707,-0.707,0.0));
#1399=ORIENTED_EDGE('',*,*,#1400,.F.);
#1410=STYLED_ITEM('color',(#43),#1411);
#1411=ADVANCED_FACE($,(#1417),#1412,.T.);
#1412=PLANE($,#1413);
#1413=AXIS2_PLACEMENT_3D($,#1414,#1415,#1416);
#1414=CARTESIAN_POINT('',(1.237,-2.987,1.153));
#1415=DIRECTION('',(0.,0.,1.));
#1416=DIRECTION('',(1.,0.,0.));
#1417=FACE_OUTER_BOUND($,#1418,.T.);
#1418=EDGE_LOOP($,(#1421, #1431, #1441, #1451, #1461));
#1421=ORIENTED_EDGE('',*,*,#395,.T.);
#1431=ORIENTED_EDGE('',*,*,#976,.T.);
#1441=ORIENTED_EDGE('',*,*,#749,.T.);
#1451=ORIENTED_EDGE('',*,*,#444,.T.);
#1462=EDGE_CURVE($,#396,#435,#1467,.T.);
#1467=CIRCLE($,#1468,3.23342);
#1468=AXIS2_PLACEMENT_3D($,#1263,#1470,#1471);
#1470=DIRECTION('',(0.0,0.0,1.0));
#1471=DIRECTION('',(0.707,0.707,0.0));
#1461=ORIENTED_EDGE('',*,*,#1462,.F.);
#1472=STYLED_ITEM('color',(#43),#1473);
#1473=ADVANCED_FACE($,(#1479),#1474,.F.);
#1474=CYLINDRICAL_SURFACE($,#1475,3.23342);
#1475=AXIS2_PLACEMENT_3D($,#1476,#1477,#1478);
#1476=CARTESIAN_POINT('',(0.0,0.0,0.602));
#1477=DIRECTION('',(0.,0.,1.));
#1478=DIRECTION('',(1.,0.,0.));
#1479=FACE_OUTER_BOUND($,#1480,.T.);
#1480=EDGE_LOOP($,(#1503, #1481, #1513, #1492));
#1503=ORIENTED_EDGE('',*,*,#140,.T.);
#1482=EDGE_CURVE($,#476,#131,#1487,.T.);
#1487=CIRCLE($,#1488,3.23342);
#1489=CARTESIAN_POINT('',(0.0,0.0,0.602));
#1488=AXIS2_PLACEMENT_3D($,#1489,#1490,#1491);
#1490=DIRECTION('',(0.0,0.0,1.0));
#1491=DIRECTION('',(-0.707,0.707,0.0));
#1481=ORIENTED_EDGE('',*,*,#1482,.F.);
#1513=ORIENTED_EDGE('',*,*,#503,.T.);
#1492=ORIENTED_EDGE('',*,*,#1256,.T.);
#1525=STYLED_ITEM('color',(#43),#1526);
#1526=ADVANCED_FACE($,(#1532),#1527,.F.);
#1527=CYLINDRICAL_SURFACE($,#1528,3.23342);
#1528=AXIS2_PLACEMENT_3D($,#1529,#1530,#1531);
#1529=CARTESIAN_POINT('',(0.0,0.0,0.602));
#1530=DIRECTION('',(0.,0.,1.));
#1531=DIRECTION('',(1.,0.,0.));
#1532=FACE_OUTER_BOUND($,#1533,.T.);
#1533=EDGE_LOOP($,(#1556, #1534, #1566, #1545));
#1556=ORIENTED_EDGE('',*,*,#238,.T.);
#1535=EDGE_CURVE($,#182,#229,#1540,.T.);
#1540=CIRCLE($,#1541,3.23342);
#1541=AXIS2_PLACEMENT_3D($,#1489,#1543,#1544);
#1543=DIRECTION('',(0.0,0.0,1.0));
#1544=DIRECTION('',(-0.707,-0.707,0.0));
#1534=ORIENTED_EDGE('',*,*,#1535,.F.);
#1566=ORIENTED_EDGE('',*,*,#209,.T.);
#1545=ORIENTED_EDGE('',*,*,#1328,.T.);
#1578=STYLED_ITEM('color',(#43),#1579);
#1579=ADVANCED_FACE($,(#1585),#1580,.F.);
#1580=CYLINDRICAL_SURFACE($,#1581,3.23342);
#1581=AXIS2_PLACEMENT_3D($,#1582,#1583,#1584);
#1582=CARTESIAN_POINT('',(0.0,0.0,0.602));
#1583=DIRECTION('',(0.,0.,1.));
#1584=DIRECTION('',(1.,0.,0.));
#1585=FACE_OUTER_BOUND($,#1586,.T.);
#1586=EDGE_LOOP($,(#1609, #1587, #1619, #1598));
#1609=ORIENTED_EDGE('',*,*,#336,.T.);
#1588=EDGE_CURVE($,#280,#327,#1593,.T.);
#1593=CIRCLE($,#1594,3.23342);
#1594=AXIS2_PLACEMENT_3D($,#1489,#1596,#1597);
#1596=DIRECTION('',(0.0,0.0,1.0));
#1597=DIRECTION('',(0.707,-0.707,0.0));
#1587=ORIENTED_EDGE('',*,*,#1588,.F.);
#1619=ORIENTED_EDGE('',*,*,#307,.T.);
#1598=ORIENTED_EDGE('',*,*,#1400,.T.);
#1631=STYLED_ITEM('color',(#43),#1632);
#1632=ADVANCED_FACE($,(#1638),#1633,.F.);
#1633=CYLINDRICAL_SURFACE($,#1634,3.23342);
#1634=AXIS2_PLACEMENT_3D($,#1635,#1636,#1637);
#1635=CARTESIAN_POINT('',(0.0,0.0,0.602));
#1636=DIRECTION('',(0.,0.,1.));
#1637=DIRECTION('',(1.,0.,0.));
#1638=FACE_OUTER_BOUND($,#1639,.T.);
#1639=EDGE_LOOP($,(#1662, #1640, #1672, #1651));
#1662=ORIENTED_EDGE('',*,*,#434,.T.);
#1641=EDGE_CURVE($,#378,#425,#1646,.T.);
#1646=CIRCLE($,#1647,3.23342);
#1647=AXIS2_PLACEMENT_3D($,#1489,#1649,#1650);
#1649=DIRECTION('',(0.0,0.0,1.0));
#1650=DIRECTION('',(0.707,0.707,0.0));
#1640=ORIENTED_EDGE('',*,*,#1641,.F.);
#1672=ORIENTED_EDGE('',*,*,#405,.T.);
#1651=ORIENTED_EDGE('',*,*,#1462,.T.);
#1684=STYLED_ITEM('color',(#43),#1685);
#1685=ADVANCED_FACE($,(#1691),#1686,.T.);
#1686=PLANE($,#1687);
#1687=AXIS2_PLACEMENT_3D($,#1688,#1689,#1690);
#1688=CARTESIAN_POINT('',(0.0,0.0,0.602));
#1689=DIRECTION('',(0.,0.,1.));
#1690=DIRECTION('',(1.,0.,0.));
#1691=FACE_OUTER_BOUND($,#1692,.T.);
#1692=EDGE_LOOP($,(#1693, #1703));
#1693=ORIENTED_EDGE('',*,*,#1105,.T.);
#1703=ORIENTED_EDGE('',*,*,#1482,.T.);
#1714=STYLED_ITEM('color',(#43),#1715);
#1715=ADVANCED_FACE($,(#1721),#1716,.T.);
#1716=PLANE($,#1717);
#1717=AXIS2_PLACEMENT_3D($,#1718,#1719,#1720);
#1718=CARTESIAN_POINT('',(0.0,0.0,0.602));
#1719=DIRECTION('',(0.,0.,1.));
#1720=DIRECTION('',(1.,0.,0.));
#1721=FACE_OUTER_BOUND($,#1722,.T.);
#1722=EDGE_LOOP($,(#1723, #1733));
#1723=ORIENTED_EDGE('',*,*,#1145,.T.);
#1733=ORIENTED_EDGE('',*,*,#1535,.T.);
#1744=STYLED_ITEM('color',(#43),#1745);
#1745=ADVANCED_FACE($,(#1751),#1746,.T.);
#1746=PLANE($,#1747);
#1747=AXIS2_PLACEMENT_3D($,#1748,#1749,#1750);
#1748=CARTESIAN_POINT('',(0.0,0.0,0.602));
#1749=DIRECTION('',(0.,0.,1.));
#1750=DIRECTION('',(1.,0.,0.));
#1751=FACE_OUTER_BOUND($,#1752,.T.);
#1752=EDGE_LOOP($,(#1753, #1763));
#1753=ORIENTED_EDGE('',*,*,#1185,.T.);
#1763=ORIENTED_EDGE('',*,*,#1588,.T.);
#1774=STYLED_ITEM('color',(#43),#1775);
#1775=ADVANCED_FACE($,(#1781),#1776,.T.);
#1776=PLANE($,#1777);
#1777=AXIS2_PLACEMENT_3D($,#1778,#1779,#1780);
#1778=CARTESIAN_POINT('',(1.237,-2.987,0.602));
#1779=DIRECTION('',(0.,0.,1.));
#1780=DIRECTION('',(1.,0.,0.));
#1781=FACE_OUTER_BOUND($,#1782,.T.);
#1782=EDGE_LOOP($,(#1783, #1793));
#1783=ORIENTED_EDGE('',*,*,#1065,.T.);
#1793=ORIENTED_EDGE('',*,*,#1641,.T.);
#1805=MANIFOLD_SOLID_BREP($,#1806);
#1806=CLOSED_SHELL('',(#1808,#1877,#1946,#1995,#2044,#2093,#2142,#2191));
#1807=STYLED_ITEM('',(#34),#1808);
#1808=ADVANCED_FACE('',(#1814),#1809,.T.);
#1809=PLANE('',#1810);
#1810=AXIS2_PLACEMENT_3D('',#1811,#1812,#1813);
#1811=CARTESIAN_POINT('',(3.696,0.394,0.0));
#1812=DIRECTION('',(0.0,1.0,0.0));
#1813=DIRECTION('',(0.,0.,1.));
#1814=FACE_OUTER_BOUND('',#1815,.T.);
#1815=EDGE_LOOP('',(#1816,#1826,#1836,#1846,#1856,#1866));
#1819=CARTESIAN_POINT('',(1.105,0.394,0.0));
#1818=VERTEX_POINT('',#1819);
#1821=CARTESIAN_POINT('',(3.696,0.394,0.0));
#1820=VERTEX_POINT('',#1821);
#1817=EDGE_CURVE('',#1818,#1820,#1822,.T.);
#1822=LINE('',#1819,#1824);
#1824=VECTOR('',#1825,2.5908);
#1825=DIRECTION('',(1.0,0.0,0.0));
#1816=ORIENTED_EDGE('',*,*,#1817,.F.);
#1829=CARTESIAN_POINT('',(1.105,0.394,0.051));
#1828=VERTEX_POINT('',#1829);
#1827=EDGE_CURVE('',#1828,#1818,#1832,.T.);
#1832=LINE('',#1829,#1834);
#1834=VECTOR('',#1835,0.0508);
#1835=DIRECTION('',(0.0,0.0,-1.0));
#1826=ORIENTED_EDGE('',*,*,#1827,.F.);
#1839=CARTESIAN_POINT('',(3.404,0.394,0.051));
#1838=VERTEX_POINT('',#1839);
#1837=EDGE_CURVE('',#1838,#1828,#1842,.T.);
#1842=LINE('',#1839,#1844);
#1844=VECTOR('',#1845,2.2987);
#1845=DIRECTION('',(-1.0,0.0,0.0));
#1836=ORIENTED_EDGE('',*,*,#1837,.F.);
#1849=CARTESIAN_POINT('',(3.404,0.394,0.254));
#1848=VERTEX_POINT('',#1849);
#1847=EDGE_CURVE('',#1848,#1838,#1852,.T.);
#1852=LINE('',#1849,#1854);
#1854=VECTOR('',#1855,0.2032);
#1855=DIRECTION('',(0.0,0.0,-1.0));
#1846=ORIENTED_EDGE('',*,*,#1847,.F.);
#1859=CARTESIAN_POINT('',(3.696,0.394,0.254));
#1858=VERTEX_POINT('',#1859);
#1857=EDGE_CURVE('',#1858,#1848,#1862,.T.);
#1862=LINE('',#1859,#1864);
#1864=VECTOR('',#1865,0.2921);
#1865=DIRECTION('',(-1.0,0.0,0.0));
#1856=ORIENTED_EDGE('',*,*,#1857,.F.);
#1867=EDGE_CURVE('',#1820,#1858,#1872,.T.);
#1872=LINE('',#1821,#1874);
#1874=VECTOR('',#1875,0.254);
#1875=DIRECTION('',(0.0,0.0,1.0));
#1866=ORIENTED_EDGE('',*,*,#1867,.F.);
#1876=STYLED_ITEM('',(#34),#1877);
#1877=ADVANCED_FACE('',(#1883),#1878,.T.);
#1878=PLANE('',#1879);
#1879=AXIS2_PLACEMENT_3D('',#1880,#1881,#1882);
#1880=CARTESIAN_POINT('',(1.105,-0.394,0.0));
#1881=DIRECTION('',(0.0,-1.0,0.0));
#1882=DIRECTION('',(0.,0.,1.));
#1883=FACE_OUTER_BOUND('',#1884,.T.);
#1884=EDGE_LOOP('',(#1885,#1895,#1905,#1915,#1925,#1935));
#1888=CARTESIAN_POINT('',(3.696,-0.394,0.0));
#1887=VERTEX_POINT('',#1888);
#1890=CARTESIAN_POINT('',(1.105,-0.394,0.0));
#1889=VERTEX_POINT('',#1890);
#1886=EDGE_CURVE('',#1887,#1889,#1891,.T.);
#1891=LINE('',#1888,#1893);
#1893=VECTOR('',#1894,2.5908);
#1894=DIRECTION('',(-1.0,0.0,0.0));
#1885=ORIENTED_EDGE('',*,*,#1886,.F.);
#1898=CARTESIAN_POINT('',(3.696,-0.394,0.254));
#1897=VERTEX_POINT('',#1898);
#1896=EDGE_CURVE('',#1897,#1887,#1901,.T.);
#1901=LINE('',#1898,#1903);
#1903=VECTOR('',#1904,0.254);
#1904=DIRECTION('',(0.0,0.0,-1.0));
#1895=ORIENTED_EDGE('',*,*,#1896,.F.);
#1908=CARTESIAN_POINT('',(3.404,-0.394,0.254));
#1907=VERTEX_POINT('',#1908);
#1906=EDGE_CURVE('',#1907,#1897,#1911,.T.);
#1911=LINE('',#1908,#1913);
#1913=VECTOR('',#1914,0.2921);
#1914=DIRECTION('',(1.0,0.0,0.0));
#1905=ORIENTED_EDGE('',*,*,#1906,.F.);
#1918=CARTESIAN_POINT('',(3.404,-0.394,0.051));
#1917=VERTEX_POINT('',#1918);
#1916=EDGE_CURVE('',#1917,#1907,#1921,.T.);
#1921=LINE('',#1918,#1923);
#1923=VECTOR('',#1924,0.2032);
#1924=DIRECTION('',(0.0,0.0,1.0));
#1915=ORIENTED_EDGE('',*,*,#1916,.F.);
#1928=CARTESIAN_POINT('',(1.105,-0.394,0.051));
#1927=VERTEX_POINT('',#1928);
#1926=EDGE_CURVE('',#1927,#1917,#1931,.T.);
#1931=LINE('',#1928,#1933);
#1933=VECTOR('',#1934,2.2987);
#1934=DIRECTION('',(1.0,0.0,0.0));
#1925=ORIENTED_EDGE('',*,*,#1926,.F.);
#1936=EDGE_CURVE('',#1889,#1927,#1941,.T.);
#1941=LINE('',#1890,#1943);
#1943=VECTOR('',#1944,0.0508);
#1944=DIRECTION('',(0.0,0.0,1.0));
#1935=ORIENTED_EDGE('',*,*,#1936,.F.);
#1945=STYLED_ITEM('',(#34),#1946);
#1946=ADVANCED_FACE('',(#1952),#1947,.T.);
#1947=PLANE('',#1948);
#1948=AXIS2_PLACEMENT_3D('',#1949,#1950,#1951);
#1949=CARTESIAN_POINT('',(3.696,0.394,0.254));
#1950=DIRECTION('',(0.0,0.0,1.0));
#1951=DIRECTION('',(0.,1.,0.));
#1952=FACE_OUTER_BOUND('',#1953,.T.);
#1953=EDGE_LOOP('',(#1954,#1964,#1974,#1984));
#1954=ORIENTED_EDGE('',*,*,#1857,.T.);
#1965=EDGE_CURVE('',#1907,#1848,#1970,.T.);
#1970=LINE('',#1908,#1972);
#1972=VECTOR('',#1973,0.7874);
#1973=DIRECTION('',(0.0,1.0,0.0));
#1964=ORIENTED_EDGE('',*,*,#1965,.F.);
#1974=ORIENTED_EDGE('',*,*,#1906,.T.);
#1985=EDGE_CURVE('',#1858,#1897,#1990,.T.);
#1990=LINE('',#1859,#1992);
#1992=VECTOR('',#1993,0.7874);
#1993=DIRECTION('',(0.0,-1.0,0.0));
#1984=ORIENTED_EDGE('',*,*,#1985,.F.);
#1994=STYLED_ITEM('',(#34),#1995);
#1995=ADVANCED_FACE('',(#2001),#1996,.T.);
#1996=PLANE('',#1997);
#1997=AXIS2_PLACEMENT_3D('',#1998,#1999,#2000);
#1998=CARTESIAN_POINT('',(3.404,0.394,0.051));
#1999=DIRECTION('',(0.0,0.0,1.0));
#2000=DIRECTION('',(0.,1.,0.));
#2001=FACE_OUTER_BOUND('',#2002,.T.);
#2002=EDGE_LOOP('',(#2003,#2013,#2023,#2033));
#2003=ORIENTED_EDGE('',*,*,#1837,.T.);
#2014=EDGE_CURVE('',#1927,#1828,#2019,.T.);
#2019=LINE('',#1928,#2021);
#2021=VECTOR('',#2022,0.7874);
#2022=DIRECTION('',(0.0,1.0,0.0));
#2013=ORIENTED_EDGE('',*,*,#2014,.F.);
#2023=ORIENTED_EDGE('',*,*,#1926,.T.);
#2034=EDGE_CURVE('',#1838,#1917,#2039,.T.);
#2039=LINE('',#1839,#2041);
#2041=VECTOR('',#2042,0.7874);
#2042=DIRECTION('',(0.0,-1.0,0.0));
#2033=ORIENTED_EDGE('',*,*,#2034,.F.);
#2043=STYLED_ITEM('',(#34),#2044);
#2044=ADVANCED_FACE('',(#2050),#2045,.T.);
#2045=PLANE('',#2046);
#2046=AXIS2_PLACEMENT_3D('',#2047,#2048,#2049);
#2047=CARTESIAN_POINT('',(3.696,-0.394,0.0));
#2048=DIRECTION('',(1.0,0.0,0.0));
#2049=DIRECTION('',(0.,0.,1.));
#2050=FACE_OUTER_BOUND('',#2051,.T.);
#2051=EDGE_LOOP('',(#2052,#2062,#2072,#2082));
#2053=EDGE_CURVE('',#1820,#1887,#2058,.T.);
#2058=LINE('',#1821,#2060);
#2060=VECTOR('',#2061,0.7874);
#2061=DIRECTION('',(0.0,-1.0,0.0));
#2052=ORIENTED_EDGE('',*,*,#2053,.F.);
#2062=ORIENTED_EDGE('',*,*,#1867,.T.);
#2072=ORIENTED_EDGE('',*,*,#1985,.T.);
#2082=ORIENTED_EDGE('',*,*,#1896,.T.);
#2092=STYLED_ITEM('',(#34),#2093);
#2093=ADVANCED_FACE('',(#2099),#2094,.T.);
#2094=PLANE('',#2095);
#2095=AXIS2_PLACEMENT_3D('',#2096,#2097,#2098);
#2096=CARTESIAN_POINT('',(1.105,0.394,0.0));
#2097=DIRECTION('',(-1.0,0.0,0.0));
#2098=DIRECTION('',(0.,0.,1.));
#2099=FACE_OUTER_BOUND('',#2100,.T.);
#2100=EDGE_LOOP('',(#2101,#2111,#2121,#2131));
#2102=EDGE_CURVE('',#1889,#1818,#2107,.T.);
#2107=LINE('',#1890,#2109);
#2109=VECTOR('',#2110,0.7874);
#2110=DIRECTION('',(0.0,1.0,0.0));
#2101=ORIENTED_EDGE('',*,*,#2102,.F.);
#2111=ORIENTED_EDGE('',*,*,#1936,.T.);
#2121=ORIENTED_EDGE('',*,*,#2014,.T.);
#2131=ORIENTED_EDGE('',*,*,#1827,.T.);
#2141=STYLED_ITEM('',(#34),#2142);
#2142=ADVANCED_FACE('',(#2148),#2143,.T.);
#2143=PLANE('',#2144);
#2144=AXIS2_PLACEMENT_3D('',#2145,#2146,#2147);
#2145=CARTESIAN_POINT('',(3.404,0.394,0.051));
#2146=DIRECTION('',(-1.0,0.0,0.0));
#2147=DIRECTION('',(0.,0.,1.));
#2148=FACE_OUTER_BOUND('',#2149,.T.);
#2149=EDGE_LOOP('',(#2150,#2160,#2170,#2180));
#2150=ORIENTED_EDGE('',*,*,#2034,.T.);
#2160=ORIENTED_EDGE('',*,*,#1916,.T.);
#2170=ORIENTED_EDGE('',*,*,#1965,.T.);
#2180=ORIENTED_EDGE('',*,*,#1847,.T.);
#2190=STYLED_ITEM('',(#34),#2191);
#2191=ADVANCED_FACE('',(#2197),#2192,.T.);
#2192=PLANE('',#2193);
#2193=AXIS2_PLACEMENT_3D('',#2194,#2195,#2196);
#2194=CARTESIAN_POINT('',(3.696,-0.394,0.0));
#2195=DIRECTION('',(0.0,0.0,-1.0));
#2196=DIRECTION('',(0.,1.,0.));
#2197=FACE_OUTER_BOUND('',#2198,.T.);
#2198=EDGE_LOOP('',(#2199,#2209,#2219,#2229));
#2199=ORIENTED_EDGE('',*,*,#1886,.T.);
#2209=ORIENTED_EDGE('',*,*,#2102,.T.);
#2219=ORIENTED_EDGE('',*,*,#1817,.T.);
#2229=ORIENTED_EDGE('',*,*,#2053,.T.);
#2239=MANIFOLD_SOLID_BREP($,#2240);
#2240=CLOSED_SHELL('',(#2242,#2311,#2380,#2429,#2478,#2527,#2576,#2625));
#2241=STYLED_ITEM('',(#34),#2242);
#2242=ADVANCED_FACE('',(#2248),#2243,.T.);
#2243=PLANE('',#2244);
#2244=AXIS2_PLACEMENT_3D('',#2245,#2246,#2247);
#2245=CARTESIAN_POINT('',(-3.696,-0.394,0.0));
#2246=DIRECTION('',(0.0,-1.0,0.0));
#2247=DIRECTION('',(0.,0.,1.));
#2248=FACE_OUTER_BOUND('',#2249,.T.);
#2249=EDGE_LOOP('',(#2250,#2260,#2270,#2280,#2290,#2300));
#2253=CARTESIAN_POINT('',(-1.105,-0.394,0.0));
#2252=VERTEX_POINT('',#2253);
#2255=CARTESIAN_POINT('',(-3.696,-0.394,0.0));
#2254=VERTEX_POINT('',#2255);
#2251=EDGE_CURVE('',#2252,#2254,#2256,.T.);
#2256=LINE('',#2253,#2258);
#2258=VECTOR('',#2259,2.5908);
#2259=DIRECTION('',(-1.0,0.0,0.0));
#2250=ORIENTED_EDGE('',*,*,#2251,.F.);
#2263=CARTESIAN_POINT('',(-1.105,-0.394,0.051));
#2262=VERTEX_POINT('',#2263);
#2261=EDGE_CURVE('',#2262,#2252,#2266,.T.);
#2266=LINE('',#2263,#2268);
#2268=VECTOR('',#2269,0.0508);
#2269=DIRECTION('',(0.0,0.0,-1.0));
#2260=ORIENTED_EDGE('',*,*,#2261,.F.);
#2273=CARTESIAN_POINT('',(-3.404,-0.394,0.051));
#2272=VERTEX_POINT('',#2273);
#2271=EDGE_CURVE('',#2272,#2262,#2276,.T.);
#2276=LINE('',#2273,#2278);
#2278=VECTOR('',#2279,2.2987);
#2279=DIRECTION('',(1.0,0.0,0.0));
#2270=ORIENTED_EDGE('',*,*,#2271,.F.);
#2283=CARTESIAN_POINT('',(-3.404,-0.394,0.254));
#2282=VERTEX_POINT('',#2283);
#2281=EDGE_CURVE('',#2282,#2272,#2286,.T.);
#2286=LINE('',#2283,#2288);
#2288=VECTOR('',#2289,0.2032);
#2289=DIRECTION('',(0.0,0.0,-1.0));
#2280=ORIENTED_EDGE('',*,*,#2281,.F.);
#2293=CARTESIAN_POINT('',(-3.696,-0.394,0.254));
#2292=VERTEX_POINT('',#2293);
#2291=EDGE_CURVE('',#2292,#2282,#2296,.T.);
#2296=LINE('',#2293,#2298);
#2298=VECTOR('',#2299,0.2921);
#2299=DIRECTION('',(1.0,0.0,0.0));
#2290=ORIENTED_EDGE('',*,*,#2291,.F.);
#2301=EDGE_CURVE('',#2254,#2292,#2306,.T.);
#2306=LINE('',#2255,#2308);
#2308=VECTOR('',#2309,0.254);
#2309=DIRECTION('',(0.0,0.0,1.0));
#2300=ORIENTED_EDGE('',*,*,#2301,.F.);
#2310=STYLED_ITEM('',(#34),#2311);
#2311=ADVANCED_FACE('',(#2317),#2312,.T.);
#2312=PLANE('',#2313);
#2313=AXIS2_PLACEMENT_3D('',#2314,#2315,#2316);
#2314=CARTESIAN_POINT('',(-1.105,0.394,0.0));
#2315=DIRECTION('',(0.0,1.0,0.0));
#2316=DIRECTION('',(0.,0.,1.));
#2317=FACE_OUTER_BOUND('',#2318,.T.);
#2318=EDGE_LOOP('',(#2319,#2329,#2339,#2349,#2359,#2369));
#2322=CARTESIAN_POINT('',(-3.696,0.394,0.0));
#2321=VERTEX_POINT('',#2322);
#2324=CARTESIAN_POINT('',(-1.105,0.394,0.0));
#2323=VERTEX_POINT('',#2324);
#2320=EDGE_CURVE('',#2321,#2323,#2325,.T.);
#2325=LINE('',#2322,#2327);
#2327=VECTOR('',#2328,2.5908);
#2328=DIRECTION('',(1.0,0.0,0.0));
#2319=ORIENTED_EDGE('',*,*,#2320,.F.);
#2332=CARTESIAN_POINT('',(-3.696,0.394,0.254));
#2331=VERTEX_POINT('',#2332);
#2330=EDGE_CURVE('',#2331,#2321,#2335,.T.);
#2335=LINE('',#2332,#2337);
#2337=VECTOR('',#2338,0.254);
#2338=DIRECTION('',(0.0,0.0,-1.0));
#2329=ORIENTED_EDGE('',*,*,#2330,.F.);
#2342=CARTESIAN_POINT('',(-3.404,0.394,0.254));
#2341=VERTEX_POINT('',#2342);
#2340=EDGE_CURVE('',#2341,#2331,#2345,.T.);
#2345=LINE('',#2342,#2347);
#2347=VECTOR('',#2348,0.2921);
#2348=DIRECTION('',(-1.0,0.0,0.0));
#2339=ORIENTED_EDGE('',*,*,#2340,.F.);
#2352=CARTESIAN_POINT('',(-3.404,0.394,0.051));
#2351=VERTEX_POINT('',#2352);
#2350=EDGE_CURVE('',#2351,#2341,#2355,.T.);
#2355=LINE('',#2352,#2357);
#2357=VECTOR('',#2358,0.2032);
#2358=DIRECTION('',(0.0,0.0,1.0));
#2349=ORIENTED_EDGE('',*,*,#2350,.F.);
#2362=CARTESIAN_POINT('',(-1.105,0.394,0.051));
#2361=VERTEX_POINT('',#2362);
#2360=EDGE_CURVE('',#2361,#2351,#2365,.T.);
#2365=LINE('',#2362,#2367);
#2367=VECTOR('',#2368,2.2987);
#2368=DIRECTION('',(-1.0,0.0,0.0));
#2359=ORIENTED_EDGE('',*,*,#2360,.F.);
#2370=EDGE_CURVE('',#2323,#2361,#2375,.T.);
#2375=LINE('',#2324,#2377);
#2377=VECTOR('',#2378,0.0508);
#2378=DIRECTION('',(0.0,0.0,1.0));
#2369=ORIENTED_EDGE('',*,*,#2370,.F.);
#2379=STYLED_ITEM('',(#34),#2380);
#2380=ADVANCED_FACE('',(#2386),#2381,.T.);
#2381=PLANE('',#2382);
#2382=AXIS2_PLACEMENT_3D('',#2383,#2384,#2385);
#2383=CARTESIAN_POINT('',(-3.696,-0.394,0.254));
#2384=DIRECTION('',(0.0,0.0,1.0));
#2385=DIRECTION('',(0.,1.,0.));
#2386=FACE_OUTER_BOUND('',#2387,.T.);
#2387=EDGE_LOOP('',(#2388,#2398,#2408,#2418));
#2388=ORIENTED_EDGE('',*,*,#2291,.T.);
#2399=EDGE_CURVE('',#2341,#2282,#2404,.T.);
#2404=LINE('',#2342,#2406);
#2406=VECTOR('',#2407,0.7874);
#2407=DIRECTION('',(0.0,-1.0,0.0));
#2398=ORIENTED_EDGE('',*,*,#2399,.F.);
#2408=ORIENTED_EDGE('',*,*,#2340,.T.);
#2419=EDGE_CURVE('',#2292,#2331,#2424,.T.);
#2424=LINE('',#2293,#2426);
#2426=VECTOR('',#2427,0.7874);
#2427=DIRECTION('',(0.0,1.0,0.0));
#2418=ORIENTED_EDGE('',*,*,#2419,.F.);
#2428=STYLED_ITEM('',(#34),#2429);
#2429=ADVANCED_FACE('',(#2435),#2430,.T.);
#2430=PLANE('',#2431);
#2431=AXIS2_PLACEMENT_3D('',#2432,#2433,#2434);
#2432=CARTESIAN_POINT('',(-3.404,-0.394,0.051));
#2433=DIRECTION('',(0.0,0.0,1.0));
#2434=DIRECTION('',(0.,1.,0.));
#2435=FACE_OUTER_BOUND('',#2436,.T.);
#2436=EDGE_LOOP('',(#2437,#2447,#2457,#2467));
#2437=ORIENTED_EDGE('',*,*,#2271,.T.);
#2448=EDGE_CURVE('',#2361,#2262,#2453,.T.);
#2453=LINE('',#2362,#2455);
#2455=VECTOR('',#2456,0.7874);
#2456=DIRECTION('',(0.0,-1.0,0.0));
#2447=ORIENTED_EDGE('',*,*,#2448,.F.);
#2457=ORIENTED_EDGE('',*,*,#2360,.T.);
#2468=EDGE_CURVE('',#2272,#2351,#2473,.T.);
#2473=LINE('',#2273,#2475);
#2475=VECTOR('',#2476,0.7874);
#2476=DIRECTION('',(0.0,1.0,0.0));
#2467=ORIENTED_EDGE('',*,*,#2468,.F.);
#2477=STYLED_ITEM('',(#34),#2478);
#2478=ADVANCED_FACE('',(#2484),#2479,.T.);
#2479=PLANE('',#2480);
#2480=AXIS2_PLACEMENT_3D('',#2481,#2482,#2483);
#2481=CARTESIAN_POINT('',(-3.696,0.394,0.0));
#2482=DIRECTION('',(-1.0,0.0,0.0));
#2483=DIRECTION('',(0.,0.,1.));
#2484=FACE_OUTER_BOUND('',#2485,.T.);
#2485=EDGE_LOOP('',(#2486,#2496,#2506,#2516));
#2487=EDGE_CURVE('',#2254,#2321,#2492,.T.);
#2492=LINE('',#2255,#2494);
#2494=VECTOR('',#2495,0.7874);
#2495=DIRECTION('',(0.0,1.0,0.0));
#2486=ORIENTED_EDGE('',*,*,#2487,.F.);
#2496=ORIENTED_EDGE('',*,*,#2301,.T.);
#2506=ORIENTED_EDGE('',*,*,#2419,.T.);
#2516=ORIENTED_EDGE('',*,*,#2330,.T.);
#2526=STYLED_ITEM('',(#34),#2527);
#2527=ADVANCED_FACE('',(#2533),#2528,.T.);
#2528=PLANE('',#2529);
#2529=AXIS2_PLACEMENT_3D('',#2530,#2531,#2532);
#2530=CARTESIAN_POINT('',(-1.105,-0.394,0.0));
#2531=DIRECTION('',(1.0,0.0,0.0));
#2532=DIRECTION('',(0.,0.,1.));
#2533=FACE_OUTER_BOUND('',#2534,.T.);
#2534=EDGE_LOOP('',(#2535,#2545,#2555,#2565));
#2536=EDGE_CURVE('',#2323,#2252,#2541,.T.);
#2541=LINE('',#2324,#2543);
#2543=VECTOR('',#2544,0.7874);
#2544=DIRECTION('',(0.0,-1.0,0.0));
#2535=ORIENTED_EDGE('',*,*,#2536,.F.);
#2545=ORIENTED_EDGE('',*,*,#2370,.T.);
#2555=ORIENTED_EDGE('',*,*,#2448,.T.);
#2565=ORIENTED_EDGE('',*,*,#2261,.T.);
#2575=STYLED_ITEM('',(#34),#2576);
#2576=ADVANCED_FACE('',(#2582),#2577,.T.);
#2577=PLANE('',#2578);
#2578=AXIS2_PLACEMENT_3D('',#2579,#2580,#2581);
#2579=CARTESIAN_POINT('',(-3.404,-0.394,0.051));
#2580=DIRECTION('',(1.0,0.0,0.0));
#2581=DIRECTION('',(0.,0.,1.));
#2582=FACE_OUTER_BOUND('',#2583,.T.);
#2583=EDGE_LOOP('',(#2584,#2594,#2604,#2614));
#2584=ORIENTED_EDGE('',*,*,#2468,.T.);
#2594=ORIENTED_EDGE('',*,*,#2350,.T.);
#2604=ORIENTED_EDGE('',*,*,#2399,.T.);
#2614=ORIENTED_EDGE('',*,*,#2281,.T.);
#2624=STYLED_ITEM('',(#34),#2625);
#2625=ADVANCED_FACE('',(#2631),#2626,.T.);
#2626=PLANE('',#2627);
#2627=AXIS2_PLACEMENT_3D('',#2628,#2629,#2630);
#2628=CARTESIAN_POINT('',(-3.696,0.394,0.0));
#2629=DIRECTION('',(0.0,0.0,-1.0));
#2630=DIRECTION('',(0.,1.,0.));
#2631=FACE_OUTER_BOUND('',#2632,.T.);
#2632=EDGE_LOOP('',(#2633,#2643,#2653,#2663));
#2633=ORIENTED_EDGE('',*,*,#2320,.T.);
#2643=ORIENTED_EDGE('',*,*,#2536,.T.);
#2653=ORIENTED_EDGE('',*,*,#2251,.T.);
#2663=ORIENTED_EDGE('',*,*,#2487,.T.);
ENDSEC;
END-ISO-10303-21;
